VolC	MassF	Dens
0.09990112029632206	0.079	998.0490202449179
0.19977186555491006	0.158	997.897291332567
0.2996123787415579	0.237	997.7460385138777
0.3994228009686469	0.316	997.595257159782
0.5004661241115334	0.396	997.4430430179108
0.6002164041148924	0.475	997.2931969976103
0.6999370076607231	0.554	997.1438091900984
0.799628068994078	0.633	996.994875416887
0.9005510727505667	0.713	996.8445149291089
1.000183076351307	0.792	996.6964827259052
1.0997859328327602	0.871	996.5488925907073
1.2006200132807376	0.951	996.3998808601691
1.3001645938313546	1.03	996.253169107813
1.399680409330254	1.109	996.1068883317176
1.5004267322125031	1.189	995.9591915114813
1.5998850285808903	1.268	995.8137676165933
1.7005733549968447	1.348	995.6669316060116
1.7999746250204083	1.427	995.5223510954444
1.9006054490878486	1.507	995.3763625594781
1.9999501760094973	1.586	995.2326125833828
2.1005239824731143	1.666	995.087458822044
2.199812640555409	1.745	994.9445271381206
2.3003299053337187	1.825	994.8001960472105
2.3995629603770903	1.904	994.658070982648
2.500024151065571	1.984	994.5145510159294
2.6004573026990423	2.064	994.3714349617501
2.6996076372166264	2.143	994.2305015635106
2.7999854029680566	2.223	994.0881802478932
2.900335471722446	2.303	993.9462548753221
2.9994040949098975	2.382	993.8064896258861
3.0996994496159265	2.462	993.6653436669784
3.199967441461123	2.542	993.5245861868791
3.3002081806209707	2.622	993.3842147904272
3.400421776466002	2.702	993.244227131001
3.5006083375796497	2.782	993.1046209086029
3.599516142098671	2.861	992.9671318748146
3.6996492910250622	2.941	992.8282771049882
3.7997557250864964	3.021	992.6897971602439
3.8998355498853297	3.101	992.5516899082028
3.9998888703110267	3.181	992.4139532541213
4.099915790552265	3.261	992.2765851392041
4.199916414108133	3.341	992.1395835389471
4.299890843798519	3.421	992.0029464615234
4.3998391817736335	3.501	991.8666719461968
4.499761529522753	3.581	991.7307580617758
4.599657987882164	3.661	991.5952029050991
4.699528657042366	3.741	991.4600045995564
4.800621536651688	3.822	991.3234779910167
4.900440606172493	3.902	991.188992260092
5.000234184476449	3.982	991.0548578730424
5.100002369220584	4.062	990.9210730455784
5.199745257441489	4.142	990.7876360130391
5.2994629455583935	4.222	990.6545450291065
5.40040152821493	4.303	990.5201412028513
5.5000687909096975	4.383	990.3877414161053
5.599711140253989	4.463	990.2556825155325
5.700573732669838	4.544	990.1223184592567
5.800166228097639	4.624	989.9909404968753
5.899734091380178	4.704	989.8598983808479
6.000521551274179	4.785	989.7275587188873
6.100040120980639	4.865	989.5971874978547
6.199534334190147	4.945	989.467147175723
6.300247502327173	5.026	989.3358168143998
6.399692971077399	5.106	989.206437501322
6.500356968606112	5.187	989.0757730941154
6.5997540534173105	5.267	988.9470482464656
6.700369242778134	5.348	988.8170431854759
6.799718299045898	5.428	988.6889662905986
6.90028503745683	5.509	988.559613992003
6.999586415382546	5.589	988.4321785540366
7.1001050547628495	5.67	988.3034724441485
7.200599626620803	5.751	988.1750889493816
7.299829986155651	5.831	988.0486054728025
7.400276977792103	5.912	987.9208582762482
7.499460512244791	5.992	987.79499998438
7.599860261911043	6.073	987.6678824818918
7.700236369997472	6.154	987.5410792750926
7.800588919963023	6.235	987.4145886791728
7.899679506767349	6.315	987.2899648885767
7.999985476218645	6.396	987.1640906289635
8.100268132467036	6.477	987.038523909606
8.200527555979622	6.558	986.9132630189306
8.299526482467545	6.638	986.7898470664519
8.39973996320366	6.719	986.6651889427163
8.49993044698256	6.8	986.5408314833478
8.60009801114284	6.881	986.4167729411006
8.700242732215928	6.962	986.2930115585392
8.800364685916788	7.043	986.1695455675837
8.90046394713451	7.124	986.0463731890701
9.000540589922783	7.205	985.9234926323319
9.100594687490302	7.286	985.8009020947987
9.199391490580577	7.366	985.6801079172559
9.299400990032135	7.447	985.5580884365943
9.399388157855567	7.528	985.4363535150803
9.50058705960838	7.61	985.3134036478094
9.600529498947196	7.691	985.1922357254
9.700449814026847	7.772	985.0713467366658
9.800348071867313	7.853	984.9507347860135
9.90022433856493	7.934	984.8303979633805
10.0000786792825	8.015	984.7103343439909
10.099911158239376	8.096	984.5905419881259
10.199721838701564	8.177	984.4710189409091
10.299510782971884	8.258	984.3517632321077
10.400509611870921	8.34	984.2313055090333
10.500255000291158	8.421	984.1125817427071
10.599978834277259	8.502	983.9941192851836
10.699681172168999	8.583	983.875916102908
10.800592565943681	8.665	983.7565156220385
10.90025181897523	8.746	983.6388279620749
10.999889745497851	8.827	983.5213933536243
11.099506399733652	8.908	983.4042096977521
11.200331275748391	8.99	983.2858327853473
11.299905282868872	9.071	983.1691477040569
11.399458174657163	9.152	983.0527071525853
11.500218657616076	9.234	982.9350759253009
11.599729208356734	9.315	982.8191208716994
11.700446926563883	9.397	982.7019766455738
11.79991532965666	9.478	982.5864981843682
11.900590474347792	9.56	982.469831875059
12.000016914165416	9.641	982.3548209646361
12.099422566810583	9.722	982.2400389904119
12.200034319119135	9.804	982.1240708129798
12.299398267315256	9.885	982.0097426011511
12.399967883112991	9.967	981.8942290574087
12.500516361910192	10.049	981.7789406179953
12.599817925842457	10.13	981.6652767552268
12.700324502644495	10.212	981.5504285244382
12.799584747855016	10.293	981.437194695429
12.900049566542924	10.375	981.3227769083159
13.000493429379711	10.457	981.208571929802
13.09969182492937	10.538	981.0959661611606
13.200094127373113	10.62	980.9821767009701
13.30047556777488	10.702	980.8685924670694
13.399612390509862	10.783	980.7565923810325
13.499952445648994	10.865	980.6434084486467
13.600271721104495	10.947	980.5304220156326
13.700570241855356	11.029	980.4176304643048
13.79962525647627	11.11	980.3064031762993
13.899882589939699	11.192	980.1939911772471
14.000119235527917	11.274	980.0817661470923
14.100335212979722	11.356	979.9697254074523
14.200530540707648	11.438	979.8578662652354
14.299483717380804	11.519	979.7475469005144
14.39963804690734	11.601	979.6360406841858
14.499771773778738	11.683	979.5247079334055
14.599884911076458	11.765	979.4135458986513
14.69997747053568	11.847	979.3025518168373
14.80004946254202	11.929	979.1917229115629
14.900100896128448	12.011	979.0810563933632
15.000131778972413	12.093	978.9705494599663
15.100142117393267	12.175	978.8601992965564
15.200131916349878	12.257	978.7500030760403
15.300101179438489	12.339	978.6399579593174
15.40004990889081	12.421	978.5300610955567
15.4999781055724	12.503	978.4203096224767
15.599885768981183	12.585	978.3107006666286
15.69977289724633	12.667	978.2012313436844
15.799639487127262	12.749	978.0918987587286
15.899485534012994	12.831	977.9827000065533
16.000528289186743	12.914	977.8723028723265
16.100332980027268	12.996	977.7633645732087
16.200117105698734	13.078	977.6545512966519
16.299880656089485	13.16	977.5458600991867
16.399623619717516	13.242	977.4372880285773
16.50056198292497	13.325	977.3275101958425
16.60026348162248	13.407	977.2191688508473
16.69994435069925	13.489	977.1109376902092
16.799604573185018	13.571	977.0028137297012
16.900459119678413	13.654	976.8934772946415
17.000077740237572	13.736	976.7855599690951
17.099675654852113	13.818	976.6777408125902
17.20046706898943	13.901	976.5687036816246
17.300023249837967	13.983	976.4610729292892
17.39955865307038	14.065	976.3535312587776
17.50028671633909	14.148	976.2447657266471
17.599780229254495	14.23	976.1373941256489
17.70046583287623	14.313	976.0287945182229
17.79991733721424	14.395	975.9215806900947
17.900560355967947	14.478	975.8131345435382
17.999969722580637	14.56	975.706066158966
18.10057002025915	14.643	975.5977609791739
18.199937109180407	14.725	975.490825681706
18.30049453866434	14.808	975.382648949913
18.399819199186577	14.89	975.2758343615143
18.50033360252563	14.973	975.1677735399234
18.599615673283694	15.055	975.0610672665405
18.70008688178514	15.138	974.9531098039593
18.800536294840573	15.221	974.8451995866365
18.89975402517162	15.303	974.7386327785712
19.000159969844013	15.386	974.6308070426243
19.100543975482836	15.469	974.5230190549833
19.199696941543593	15.551	974.4165636787287
19.300037181557695	15.634	974.3088412964272
19.400355327126157	15.717	974.2011471710804
19.499443070169818	15.799	974.0947752096602
19.59971712956449	15.882	973.9871278342647
19.69996892748104	15.965	973.8794992396298
19.800198405460026	16.048	973.7718862593239
19.90040550377368	16.131	973.664285730031
20.00059016143477	16.214	973.5566944919001
20.09954567743208	16.296	973.4504055708811
20.199685538100717	16.379	973.3428234339441
20.299802768476987	16.462	973.2352411708148
20.399897302643126	16.545	973.1276556389452
20.499969073469018	16.628	973.0200637009889
20.60001801262227	16.711	972.9124622251478
20.700044050578303	16.794	972.8048480855084
20.800047116630775	16.877	972.6972181623856
20.900027138902068	16.96	972.5895693426584
20.999984044354033	17.043	972.4818985201061
21.099917758798817	17.126	972.3742025957417
21.1998282069099	17.209	972.2664784781432
21.299715312233307	17.292	972.1587230837832
21.399578997198955	17.375	972.0509333373562
21.499419183132147	17.458	971.943106172103
21.6004382559079	17.542	971.8339386607389
21.70023091783876	17.625	971.7260269503977
21.799999837209295	17.708	971.6180686388831
21.899744931031766	17.791	971.5100606969397
21.99946611527373	17.874	971.4020001054498
22.100364329190857	17.958	971.2925808987244
22.2000371473994	18.041	971.1844052679472
22.299685796730877	18.124	971.0761679582558
22.40051033472081	18.208	970.9665607450419
22.500110087149416	18.291	970.858190330401
22.599685402384733	18.374	970.7497493105476
22.700435446569323	18.458	970.6399268813886
22.79996131623986	18.541	970.5313349064834
22.89946247173682	18.624	970.4226635112145
23.000137177827877	18.708	970.3125989954373
23.09958832203071	18.791	970.2037590265796
23.200212219331775	18.875	970.0935180056886
23.299612965192374	18.958	969.9844978307706
23.400185658391475	19.042	969.87406858965
23.49953561180288	19.125	969.7648566909502
23.60005669855957	19.209	969.6542276328505
23.70055167334835	19.293	969.5434937229963
23.799824529763285	19.376	969.4339722627051
23.9002672806866	19.46	969.3230213382693
23.999488328772095	19.543	969.2132798570648
24.09987843692525	19.627	969.1021006365412
24.20024190577008	19.711	968.990802361921
24.300578626984045	19.795	968.8793822299331
24.399694484826107	19.878	968.7691661127835
24.499977704503525	19.962	968.6574954598643
24.60023384846288	20.046	968.5456946789246
24.700462805482434	20.13	968.433761038306
24.79947174776667	20.213	968.3230267901034
24.899646321497844	20.297	968.210820971419
24.9997933719132	20.381	968.0984742420776
25.099912785143047	20.465	967.9859839457908
25.20000444669349	20.549	967.8733474457305
25.300068241462416	20.633	967.760562124742
25.40010405375558	20.717	967.6476253855604
25.500111767302673	20.801	967.5345346510163
25.600091265273484	20.885	967.4212873642441
25.700042430293944	20.969	967.3078809888785
25.79996514446239	21.053	967.1943130092551
25.899859289365683	21.137	967.0805809306011
25.99972474609541	21.221	966.9666822792249
26.099561395264104	21.305	966.8526146027004
26.200557129462883	21.39	966.7370144378965
26.3003354569795	21.474	966.622599355507
26.40008461462066	21.558	966.5080079917789
26.49980448123999	21.642	966.3932379813784
26.5994949352933	21.726	966.2782869811007
26.70034211598639	21.811	966.1617809100399
26.79997302497008	21.895	966.0464587663274
26.899574153068524	21.979	965.9309487105344
27.000330568405655	22.064	965.8138699517929
27.099871407275295	22.148	965.6979750324348
27.200566562838226	22.233	965.5805022855847
27.300046612200756	22.317	965.464213570826
27.399496259827288	22.401	965.3477258589069
27.50009875791286	22.486	965.2296466404077
27.59948686297325	22.57	965.1127521161059
27.700026830351103	22.655	964.9942569397665
27.800535153856977	22.74	964.8755493447023
27.899829811853504	22.824	964.7580275553835
28.000274834170604	22.909	964.638891364855
28.099506681681007	22.993	964.520941965381
28.199887888421358	23.078	964.4013690186995
28.30023680379653	23.163	964.2815733803196
28.400553297289722	23.248	964.1615530620023
28.499657616952206	23.332	964.0427220963093
28.59990926002648	23.417	963.9222492565401
28.70012809068911	23.502	963.8015459488859
28.800313978133136	23.587	963.6806102880428
28.90046679151953	23.672	963.5594404147162
29.000586399993374	23.757	963.4380344956934
29.099495381428543	23.841	963.3178232166674
29.1995485820145	23.926	963.1959426407416
29.29956818672683	24.011	963.0738206971117
29.399554064806395	24.096	962.9514556572141
29.4995060855575	24.181	962.8288458188615
29.59942411836365	24.266	962.7059895062915
29.700482933998984	24.352	962.5814352995001
29.800332195756248	24.437	962.458078169369
29.90014707681693	24.522	962.3344696780642
29.99992744703742	24.607	962.2106082562219
30.09967317643017	24.692	962.0864923610762
30.200556997824695	24.778	961.9606557483355
30.30023264493672	24.863	961.8360233468729
30.39987326082348	24.948	961.7111319865653
30.49947871627381	25.033	961.5859802315479
30.600220085483947	25.119	961.4590896553119
30.699754415914654	25.204	961.333409805553
30.800423560036272	25.29	961.205982118982
30.899886245504206	25.375	961.0797686884265
31.000482639604332	25.461	960.9517984507888
31.099873162452084	25.546	960.8250461705244
31.20039628402675	25.632	960.6965281607045
31.299714129111756	25.717	960.5692319787728
31.40016345831575	25.803	960.4401611950211
31.50057548000371	25.889	960.3108105867707
31.599783133107263	25.974	960.1826879356662
31.70012058663095	26.06	960.052777447973
31.80042034424758	26.146	959.9225836863276
31.899516658249023	26.231	959.7936243775483
31.999741079167038	26.317	959.6628641238001
32.099927419621096	26.403	959.5318173939568
32.200075551845444	26.489	959.4004831714865
32.300185348556795	26.575	959.2688604673455
32.4002566829673	26.661	959.136948319917
32.500289428797366	26.747	959.0047457949494
32.60028346028812	26.833	958.8722519854839
32.70023865221393	26.919	958.7394660117872
32.80015487989474	27.005	958.6063870212749
32.900032019208005	27.091	958.4730141884332
32.99986994660086	27.177	958.3393467147387
33.09966853910163	27.263	958.2053838285708
33.19942767433168	27.349	958.0711247851274
33.3003065269749	27.436	957.9350025137807
33.39998592061583	27.522	957.8001455641421
33.49962549212334	27.608	957.6649903752134
33.600383021445055	27.695	957.5279595012322
33.699942123146556	27.781	957.3922024595962
33.79946104363548	27.867	957.2561453363649
33.90009615568094	27.954	957.118200246563
33.99953389007479	28.04	956.9815378034365
34.100086632784574	28.127	956.842979290718
34.199442709561545	28.213	956.7057094757737
34.29991260881254	28.3	956.56653557042
34.40034066958216	28.387	956.4270515122912
34.499573149738474	28.473	956.2888654838218
34.59991766560659	28.56	956.1487634682269
34.700219993680335	28.647	956.0083501283356
34.800480018639995	28.734	955.8676251245083
34.89954594085168	28.82	955.7282110313278
34.999721506343455	28.907	955.586865375434
35.0998544288927	28.994	955.4452071950709
35.199944596424295	29.081	955.3032362534805
35.299991897697815	29.168	955.1609523393137
35.39999622231565	29.255	955.0183552664735
35.49995746073083	29.342	954.8754448739503
35.59987550425476	29.429	954.7322210256593
35.699750245064806	29.516	954.5886836102742
35.79958157621142	29.603	954.4448325410556
35.90051612463363	29.691	954.2990088653224
36.00025981713518	29.778	954.1545267192191
36.09995978324048	29.865	954.0097308048512
36.19961591957213	29.952	953.8646211323694
36.30037283573965	30.04	953.7175243788014
36.39994049930276	30.127	953.5717837102518
36.49946402727358	30.214	953.4257294566148
36.60008650256014	30.302	953.2776775124281
36.699520951007464	30.389	953.13099282306
36.80005312172168	30.477	952.9823034805886
36.900539731829966	30.565	952.8332938734873
36.999839564476375	30.652	952.6856629291668
37.10023527708056	30.74	952.5360170560707
37.199445053989336	30.827	952.3877575389716
37.299749484348546	30.915	952.2374763814873
37.400007869891674	31.003	952.0868761940201
37.500220116342945	31.091	951.9359572923457
37.600386130442814	31.179	951.784720014399
37.70050581995175	31.267	951.6331647200576
37.799442158427624	31.354	951.4830194024125
37.89946945511309	31.442	951.3308328441365
37.999450157649974	31.53	951.1783294735952
38.100519523175294	31.619	951.0237713318617
38.200406242067864	31.707	950.8706321061662
38.30024610453271	31.795	950.7171774716892
38.40003902555642	31.883	950.5634079356599
38.499784921167745	31.971	950.409324025451
38.599483708439486	32.059	950.2549262883467
38.70026743851646	32.148	950.0984554139279
38.79987122688007	32.236	949.943428193709
38.900558714239466	32.325	949.7863219026514
39.00006718096354	32.413	949.6306676500611
39.099528138670195	32.501	949.4747026123625
39.200070934420694	32.59	949.3166498182461
39.29943610327555	32.678	949.1600617029866
39.39988186818214	32.767	949.0013801618782
39.500278729497374	32.856	948.8423835698429
39.59949938039028	32.944	948.684864439495
39.6997987625667	33.033	948.5252435610198
39.80004902065109	33.122	948.3653099556875
39.900250083059056	33.211	948.2050644365079
40.00040187930405	33.3	948.0445078338189
40.100504339996114	33.389	947.8836409950266
40.20055739684072	33.478	947.7224647843497
40.300560982637165	33.567	947.5609800825598
40.40051503127678	33.656	947.3991877867214
40.50041947774121	33.745	947.2370888099347
40.600274258100164	33.834	947.074684081074
40.70007930950923	33.923	946.9119745445288
40.799834570207345	34.012	946.7489611599431
40.89953997951421	34.101	946.5856449019557
41.000314918754235	34.191	946.420186642625
41.09991988576245	34.28	946.256264245504
41.19947482515413	34.369	946.092041997775
41.300097427892915	34.459	945.9256706866495
41.39955158031634	34.548	945.7608485081178
41.500072151629375	34.638	945.5938726784213
41.60054133950515	34.728	945.4265945517419
41.69984362005436	34.817	945.2608788935069
41.80021045289129	34.907	945.0930028817098
41.900525744485236	34.997	944.9248279676262
41.999675686723464	35.086	944.7582288625193
42.099888319106746	35.176	944.5894629291594
42.200049262152575	35.266	944.4204016013865
42.30015846845705	35.356	944.2510460768326
42.40021589168268	35.446	944.0813975647106
42.5002214865524	35.536	943.9114572855357
42.60017520884394	35.626	943.7412264708565
42.70007701538379	35.716	943.5707063629839
42.7999268640411	35.806	943.3998982147197
42.89972471372125	35.896	943.2288032890859
42.99947052435957	35.986	943.057422859058
43.100271672372656	36.077	942.883849230577
43.19991270954197	36.167	942.7118985127806
43.29950159318231	36.257	942.5396661810535
43.40014395726391	36.348	942.3652351689511
43.49962784637159	36.438	942.1924404561956
43.60016397876455	36.529	942.0174435197415
43.69954273578781	36.619	941.8440917938858
43.799972501443904	36.71	941.6685343938966
43.90034874140078	36.801	941.4926972969116
43.99956926861583	36.891	941.3185187481014
44.09983895383667	36.982	941.1421295114777
44.20005502328356	37.073	940.9654647960589
44.30021744877729	37.164	940.7885260270303
44.400326203104775	37.255	940.6113146361195
44.50038126001032	37.346	940.4338320613315
44.60038259418643	37.437	940.2560797466799
44.70033018126472	37.528	940.0780591419225
44.80022399780667	37.619	939.8997717022972
44.900064021294284	37.71	939.7212188882612
44.99985023012056	37.801	939.5424021652284
45.09958260357991	37.892	939.3633230033115
45.20035619096064	37.984	939.1820106623218
45.299980243001585	38.075	939.002408207223
45.39955040267652	38.166	938.8225477655162
45.50015993844044	38.258	938.6404500972509
45.59962166999094	38.349	938.4600753508938
45.7001215535932	38.441	938.2774607751468
45.79947479438519	38.532	938.0965777617849
45.899864965921275	38.624	937.9134523945776
46.000199961157	38.716	937.7300725530608
46.10047976748587	38.808	937.5464397906615
46.19961527202147	38.899	937.3645557490826
46.29978526618773	38.991	937.1804245200252
46.399900038637256	39.083	936.996045024633
46.499959579986296	39.175	936.8114188229697
46.599963881630465	39.267	936.6265474761428
46.69991293573365	39.359	936.4414325460698
46.79980673521622	39.451	936.2560755952313
46.89964527374337	39.543	936.0704781864347
47.000512842850824	39.636	935.8826206160549
47.10024024258386	39.728	935.6965444087855
47.1999123666688	39.82	935.5102324485804
47.29952921164137	39.912	935.323686297217
47.400172661907206	40.005	935.1348760392003
47.499678340072435	40.097	934.9478636842333
47.60020941158513	40.19	934.7585853419205
47.699603917130474	40.282	934.5711130854777
47.80002260668673	40.375	934.3813730233442
47.90038480196505	40.468	934.1914032527291
47.999612248631344	40.56	934.0032517220324
48.09986206684885	40.653	933.8128297662312
48.20005539607673	40.746	933.622182884379
48.30019223930416	40.839	933.4313126708722
48.40027260011095	40.932	933.2402207170045
48.500296482654555	41.025	933.0489086107543
48.600263891657555	41.118	932.85737793658
48.70017483239481	41.211	932.6656302752139
48.800029310680785	41.304	932.4736672034626
48.899827332856546	41.397	932.2814902940041
48.999568905777465	41.49	932.0891011151976
49.10032561324352	41.584	931.8944291250637
49.19995370343968	41.677	931.7016178539508
49.299525367995976	41.77	931.5085990073984
49.40011036558402	41.864	931.3132953337604
49.49956859919734	41.957	931.1198637880324
49.60003896548984	42.051	930.9241461264842
49.700451725018404	42.145	930.7282227325481
49.79973958359195	42.238	930.534182715047
49.90003777516032	42.332	930.337854726924
50.00027839368579	42.426	930.141325700849
50.10046145124611	42.52	929.9445971943236
50.199522098115246	42.613	929.7497667564159
50.299590683490244	42.707	929.552646015463
50.39960174620683	42.801	929.3553304091283
50.49955529977292	42.895	929.1578214670317
50.60051377301761	42.99	928.9580164861982
50.70035173867375	43.084	928.7601234153784
50.80013223776443	43.178	928.5620415686903
50.89985528502871	43.272	928.3637724451972
50.99952089548086	43.366	928.1653175359725
51.10018843735477	43.461	927.9645641554105
51.199738609645706	43.555	927.7657401782011
51.30028951725913	43.65	927.5646168071795
51.39972431511794	43.744	927.3654296891226
51.50015865380333	43.839	927.1639422827674
51.59947814274043	43.933	926.9643978810815
51.699795979529576	44.028	926.7625523228027
51.80005528295929	44.123	926.5605289397794
51.90025607051923	44.218	926.3583291903218
52.000398359858046	44.313	926.155954523067
52.10048216877161	44.408	925.953406376872
52.20050751519032	44.503	925.7506861806934
52.300474417167244	44.598	925.5477953534839
52.40038289286597	44.693	925.3447353040829
52.50023296054883	44.788	925.141507431116
52.60002463856518	44.883	924.938113122899
52.699757945339485	44.978	924.7345537573353
52.800481799115715	45.074	924.5286853828633
52.90009780497731	45.169	924.3247982926348
52.999655495402976	45.264	924.1207502295275
53.10020194105355	45.36	923.914392129751
53.19964244310537	45.455	923.710024456394
53.300070504878505	45.551	923.5033460756939
53.400439093553366	45.647	923.2965087306183
53.49970364788883	45.742	923.0916707591493
53.59995396699973	45.838	922.8845210923389
53.70014487037093	45.934	922.6772164098475
53.800276377109	46.03	922.4697580091811
53.90034850626269	46.126	922.2621471760526
54.00036127681253	46.222	922.0543851843313
54.100314707660424	46.318	921.8464732959839
54.20020881761981	46.414	921.6384127610321
54.30004362540524	46.51	921.4302048175
54.39981914962273	46.606	921.2218506913732
54.499535408760245	46.702	921.0133515965607
54.60023020333059	46.799	920.8025346193324
54.699827370383105	46.895	920.5937477014144
54.80040186938414	46.992	920.3826423194529
54.89988001739818	47.088	920.1735723369399
55.000334293999295	47.185	919.962183308217
55.09969349472211	47.281	919.7528349203374
55.200027620707694	47.378	919.5411669023259
55.30030138674482	47.475	919.3293603937972
55.4005148103762	47.572	919.1174165329446
55.49963571044905	47.668	918.9075235289802
55.59972912267376	47.765	918.6953097140532
55.69976224362493	47.862	918.4829618731395
55.79973508993895	47.959	918.2704810932439
55.89964767800527	48.056	918.0578684485386
55.999500023958994	48.153	917.8451250003724
56.10032061482263	48.251	917.6300565560657
56.200051903255336	48.348	917.4170533121313
56.29972299653952	48.445	917.2039223824312
56.40036051299706	48.543	916.9884655887957
56.4999106406419	48.64	916.775081014468
56.60042597420725	48.738	916.5593699840992
56.69985519463041	48.835	916.3457357436715
56.800248403086506	48.933	916.1297744440226
56.89955677223247	49.03	915.9158944130219
56.99982791081466	49.128	915.6996867077298
57.10003772148767	49.226	915.4833565940555
57.20018621719392	49.324	915.2669050087173
57.30027341052717	49.422	915.0503328754371
57.4002993137279	49.52	914.8336411049936
57.50026393867791	49.618	914.6168305952644
57.6001672968964	49.716	914.3999022312919
57.70000939953487	49.814	914.1828568853276
57.79979025737308	49.912	913.965695416895
57.899509880815515	50.01	913.7484186728567
58.00018488680344	50.109	913.5288086230754
58.099781446554175	50.207	913.3113026628765
58.20033215237699	50.306	913.0914627222564
58.29980568581706	50.404	912.8737308156024
58.40023212763884	50.503	912.6536642363656
58.49958266897222	50.601	912.4357095525879
58.599884879723575	50.7	912.2154194861723
58.70012467103505	50.799	911.9950182673551
58.800302049976835	50.898	911.7745066543653
58.90041702319792	50.997	911.5538853930244
59.000469596923736	51.096	911.3331552168338
59.10045977695493	51.195	911.1123168470702
59.20038756866569	51.294	910.8913709928814
59.30025297700217	51.393	910.6703183513772
59.40005600648214	51.492	910.4491596077405
59.49979666119325	51.591	910.227895435315
59.60048147796647	51.691	910.0042899135834
59.70009676371822	51.79	909.7828158083998
59.799649684407086	51.889	909.5612382309054
59.90014487938679	51.989	909.337318089309
59.999572446701144	52.088	909.115534407236
60.09994102560088	52.188	908.8914073239403
60.20024598018649	52.288	908.6671771695527
60.30048731110536	52.388	908.4428445440635
60.39966355642057	52.487	908.2206548836696
60.4997782764038	52.587	907.9961200811636
60.59982937199854	52.687	907.771484534715
60.69981684207952	52.787	907.5467488000497
60.79974068508043	52.887	907.3219134221077
60.89960089899679	52.987	907.0969789351899
61.00039512586246	53.088	906.8696950362428
61.10012743749099	53.188	906.6445629141617
61.199796111375015	53.288	906.4193332284026
61.30039687269365	53.389	906.191752715757
61.399937622958745	53.489	905.9663284079602
61.500409172479486	53.59	905.738552302178
61.59982198056142	53.69	905.5129352834622
61.70016429781013	53.791	905.2849654749745
61.800441668645334	53.892	905.0568990222879
61.89966220283869	53.992	904.8309958795609
61.99981030425201	54.093	904.602738418813
62.09989343868835	54.194	904.3743856251336
62.199911598437815	54.295	904.1459379184682
62.29986477538044	54.396	903.9173957096933
62.3997529609901	54.497	903.6887594007571
62.49957614634006	54.598	903.4600293848432
62.600321701769744	54.7	903.2289400036078
62.70001421443489	54.801	903.0000228005467
62.79964169760126	54.902	902.7710130225414
62.900189582344034	55.004	902.5396422327034
62.99968633055922	55.105	902.3104474675648
63.10010216340866	55.207	902.0788905679294
63.20045162738425	55.309	901.8472406761177
63.29975186493532	55.41	901.6177705645853
63.39996920481722	55.512	901.3859365984205
63.50012013789901	55.614	901.154010628163
63.600204650781414	55.716	900.9219929693061
63.700222729718035	55.818	900.689883930129
63.800174360621185	55.92	900.4576838118444
63.90005952906829	56.022	900.2253929087534
63.999878220309455	56.124	899.9930115084156
64.0996304192733	56.226	899.7605398917899
64.20029309200753	56.329	899.525697873805
64.29991160768512	56.431	899.293045764055
64.4004392541982	56.534	899.0580220241409
64.49992402198703	56.636	898.8251904799796
64.60031657584227	56.739	898.5899860627555
64.69966752879208	56.841	898.3569760950686
64.79992492124204	56.944	898.121591998127
64.900114376685	57.047	897.8861179855038
65.00023587694396	57.15	897.650554292334
65.10028940358488	57.253	897.4149011485167
65.20027493792182	57.356	897.179158778834
65.30019246102691	57.459	896.9433274031319
65.40004195373693	57.562	896.7074072364572
65.4998233966618	57.665	896.4713984892147
65.59953677019261	57.768	896.2353013673195
65.70014915064948	57.872	895.9968225796966
65.79972566437566	57.975	895.7605484558295
65.90019981526076	58.079	895.5218913460214
65.9996393875222	58.182	895.2854410009713
66.09997522561625	58.286	895.0466063413412
66.20024154136067	58.39	894.8076827598231
66.30043831321481	58.494	894.5686704400745
66.3996030891816	58.597	894.3318690302912
66.49966137721142	58.701	894.092680620288
66.59965005600652	58.805	893.8534040010829
66.69956910343177	58.909	893.6140393433014
66.80037824938101	59.014	893.3722839604862
66.90015729708108	59.118	893.132742883295
66.99986664604577	59.222	892.8931142638942
67.10046400851895	59.327	892.651092876784
67.20003322137886	59.431	892.4112888116669
67.29953266718852	59.535	892.171397677766
67.39991803862978	59.64	891.9291117252556
67.5002322479655	59.745	891.686737332411
67.60047527151112	59.85	891.4442746523805
67.6996934041825	59.954	891.2040342594321
67.79979466338098	60.059	890.9613962943276
67.89982466562385	60.164	890.7186704892439
67.99978338702641	60.269	890.475856990506
68.09967080367146	60.374	890.2329559429957
68.20043717805395	60.48	889.987652894811
68.30018123367599	60.585	889.7445763487942
68.39985391244115	60.69	889.5014126824396
68.5004034306536	60.796	889.2558449453829
68.59993260342871	60.901	889.0125066314722
68.700337200072	61.007	888.7667628664469
68.79972277009139	61.112	888.5232504638057
68.89998234753776	61.218	888.2773312318318
69.00016903495259	61.324	888.0313240605941
69.10028280777719	61.43	887.7852290897968
69.20032364149262	61.536	887.5390464586903
69.30029151162225	61.642	887.2927763061101
69.40018639374085	61.748	887.0464187705945
69.50000826347696	61.854	886.7999739904187
69.59975709651776	61.96	886.5534421036584
69.70037285813314	62.067	886.3044962416444
69.79997485551067	62.173	886.0577897370131
69.90044234701571	62.28	885.8086678907335
69.99989741139132	62.386	885.5617873248873
70.10021653484165	62.493	885.3124900563677
70.20046108922988	62.6	885.0631048772132
70.29969522762181	62.706	884.8159638583136
70.3997912680721	62.813	884.5664041028159
70.49981266658192	62.92	884.3167568623858
70.59975939897495	63.027	884.0670222798466
70.69963144117108	63.134	883.8172004982563
70.80036110202916	63.242	883.5649556541991
70.90008299339766	63.349	883.3149590932821
70.99973012271806	63.456	883.0648757656411
71.10023269616454	63.564	882.8123673705368
71.19972953122223	63.671	882.5621101351143
71.3000803578789	63.779	882.3094265019172
71.40035492227493	63.887	882.0566550653339
71.49962578864496	63.994	881.8061376645013
71.5997484635824	64.102	881.5531918800064
71.69979480506964	64.21	881.3001587406466
71.79976478951289	64.318	881.047038396953
71.89965839341838	64.426	880.7938309996716
72.00039946965605	64.535	880.5381909766012
72.10013953463347	64.643	880.2848091226523
72.19980314896168	64.751	880.0313406698415
72.3003120352861	64.86	879.7754376355142
72.39982197065014	64.968	879.5217956407123
72.50017570822426	65.077	879.2657177658568
72.60045147874091	65.186	879.0095523004856
72.69973036761665	65.294	878.7556507409247
72.79985084960286	65.403	878.499311360413
72.8998932946318	65.512	878.2428848533475
72.99985767945154	65.621	877.9863713742377
73.09974398085814	65.73	877.7297710771439
73.19955217569047	65.839	877.4730841156197
73.30019683379147	65.949	877.2139545226273
73.39984802900528	66.058	876.9570938986813
73.5003342000804	66.168	876.6977893592396
73.59982830246562	66.277	876.4407556839055
73.70015589247473	66.387	876.1812768108783
73.80040379440041	66.497	875.9217106015649
73.89966172367308	66.606	875.6644180847367
73.99975090308361	66.716	875.4046784453767
74.0997603232168	66.826	875.1448519173588
74.19968996016891	66.936	874.884938647203
74.30044714955277	67.047	874.6225747476344
74.40021642226789	67.157	874.3624876399275
74.49990583937122	67.267	874.1023142193276
74.60042055136552	67.378	873.839688233023
74.69994945776281	67.488	873.5793418176954
74.80030215000436	67.599	873.3165415381608
74.89967044656922	67.709	873.0560226661568
74.99986101837817	67.82	872.7930486251873
75.099970124736	67.931	872.5299875034433
75.19999773965243	68.042	872.2668394256316
75.29994383690247	68.153	872.0036045129298
75.39980839000697	68.264	871.7402828827879
75.49959137221222	68.375	871.4768746487248
75.60019059619358	68.487	871.2110057010271
75.69980961967218	68.598	870.9474238053658
75.80024335177193	68.71	870.6813798409639
75.89969830473258	68.821	870.4176246894863
75.99996643070726	68.933	870.151406098593
76.10015133822422	69.045	869.8850999373002
76.20025299724198	69.157	869.6187062882273
76.30027137725553	69.269	869.3522252281784
76.40020644727929	69.381	869.0856568279956
76.50005817582158	69.493	868.8190011523154
76.59982653085497	69.605	868.5522582592846
76.70040114821076	69.718	868.2830453966782
76.80000191274875	69.83	868.0161274387738
76.90040737510895	69.943	867.7467380315009
76.9998404127807	70.055	867.4796451590372
77.1000765799526	70.168	867.2100793284411
77.20022766870532	70.281	866.9404249200036
77.30029364153859	70.394	866.6706819398507
77.40027446017999	70.507	866.4008503854257
77.50017008554741	70.62	866.1309302451385
77.59998047772208	70.733	865.8609214981387
77.69970559592036	70.846	865.5908241140734
77.80022678565447	70.96	865.3182466297134
77.89978047434546	71.073	865.047971055509
78.00012862976155	71.187	864.7752136911733
78.10038981893098	71.301	864.5023658865182
78.19968565259808	71.414	864.2318221467136
78.29977353156451	71.528	863.958793991637
78.3997743008765	71.642	863.6856751086642
78.49968791030453	71.756	863.4124653777473
78.6003895925618	71.871	863.1367668888033
78.70012796098729	71.985	862.8633742518675
78.79977901101091	72.099	862.5898903296475
78.9002156662063	72.214	862.3139147612765
78.99969114510841	72.328	862.0402469352032
79.09995057244308	72.443	861.7640854583815
79.20012090836178	72.558	861.4878303007617
79.30020209035074	72.673	861.2114812281652
79.4001940543429	72.788	860.9350379910518
79.50009673468111	72.903	860.6585003242405
79.59991006409231	73.018	860.3818679467561
79.69963397362932	73.133	860.1051405613234
79.8001343862101	73.249	859.8259102812026
79.89967846317454	73.364	859.5489910885574
79.99999733025882	73.48	859.2695666430179
80.10022491586821	73.596	858.9900441426951
80.20036114004324	73.712	858.7104231943815
80.3004059208536	73.828	858.4307033862729
80.40035917435662	73.944	858.1508842876697
80.50022081455401	74.06	857.870965448665
80.59999075334281	74.176	857.5909463997721
80.69966890049217	74.292	857.3108266518307
80.80011326610841	74.409	857.0281895560643
80.89960675715902	74.525	856.7478659822614
80.99986467991813	74.642	856.4650222045268
81.10002883002342	74.759	856.1820737758057
81.20009910321679	74.876	855.8990200877315
81.30007539276639	74.993	855.6158605096994
81.39995758941934	75.11	855.3325943885441
81.49974558136978	75.227	855.0492210483783
81.60029093002066	75.345	854.7633164062308
81.69988935902204	75.462	854.4797255759795
81.80024328362762	75.58	854.1936000911614
81.89965166647272	75.697	853.9097887606549
81.99981366853478	75.815	853.6234392997524
82.09987910583678	75.933	853.3369761305307
82.1998478439997	76.051	853.0503983877225
82.29971974564889	76.169	852.7637051803829
82.40033980576297	76.288	852.4744645018272
82.50001678638291	76.406	852.1875365902295
82.59959649871367	76.524	851.9004903765021
82.69992144651944	76.643	851.6108907457015
82.80014716113604	76.762	851.3211687366002
82.90027348226916	76.881	851.03132327193
83.00030024622379	77.0	850.7413532462251
83.10022728587444	77.119	850.451257525735
83.2000544306152	77.238	850.161034948133
83.29978150632694	77.357	849.8706843223999
83.40024511031754	77.477	849.5777628698193
83.49977066663688	77.596	849.2871513567761
83.60003068539001	77.716	848.9939642542481
83.70018819817757	77.836	848.7006417797356
83.80024300775585	77.956	848.4071825614578
83.90019491301841	78.076	848.1135851970207
84.00004370894683	78.196	847.8198482531548
84.09978918658805	78.316	847.5259702657231
84.2002610469801	78.437	847.229498965316
84.29979837974713	78.557	846.9353331668872
84.40005991540595	78.678	846.6385685209998
84.50021550919786	78.799	846.3416541724278
84.60026492609143	78.92	846.0445884593119
84.70020792678133	79.041	845.7473696872935
84.80004426764303	79.162	845.4499961293109
84.89977370072502	79.283	845.1524660257728
85.0002188510847	79.405	844.8523166844775
85.09973281840611	79.526	844.5544667486834
85.19996019577124	79.648	844.253991187451
85.30007783349416	79.77	843.953348962284
85.40008545466272	79.892	843.6525381011338
85.49998277771645	80.014	843.3515565981293
85.59976951640937	80.136	843.050402413468
85.70026193614193	80.259	842.7466028364879
85.79982571611887	80.381	842.4450955757593
85.900092743671	80.504	842.1409357099801
86.00024614968564	80.627	841.8365916473977
86.10028561644393	80.75	841.5320611243892
86.20021082128162	80.873	841.2273418428413
86.3000214365544	80.996	840.9224314700728
86.39971712964369	81.119	840.6173276391546
86.50010668663903	81.243	840.3095450280275
86.60037875095429	81.367	840.001560864278
86.69972574333694	81.49	839.6958588294792
86.79976270298828	81.614	839.3874656106436
86.89968108844836	81.738	839.0788631638789
87.00028487750059	81.863	838.7675575481153
87.09996402984478	81.987	838.4585269660893
87.20032588460661	82.112	838.1467843023402
87.29976426183288	82.236	837.8373146833283
87.3998826064651	82.361	837.5251238431047
87.4998780994663	82.486	837.2127037324171
87.59975032746405	82.611	836.9000514427753
87.70029636018413	82.737	836.5846599762426
87.79991980176243	82.862	836.2715325498511
87.90021419007417	82.988	835.9556560617057
88.00038159089739	83.114	835.6395314490674
88.09962808787829	83.239	835.325667477091
88.20033361931743	83.366	835.0065252077593
88.30011732750968	83.492	834.6896371729426
88.39977220943595	83.618	834.3724882021497
88.50008715853232	83.745	834.0525547909256
88.60027025636057	83.872	833.7323495477094
88.70032100635916	83.999	833.4118690398682
88.80023890622955	84.126	833.0911098016732
88.90002344794739	84.253	832.7700683346566
88.99967411772268	84.38	832.4487411074842
89.0999734541432	84.508	832.1245909853933
89.2001357366322	84.636	831.8001432843348
89.30016042156656	84.764	831.4753942907237
89.4000469594079	84.892	831.1503402583785
89.49979479477803	85.02	830.8249774094666
89.60018100863982	85.149	830.496756353833
89.69964865474115	85.277	830.1707619238277
89.79975133230283	85.406	829.8418965184765
89.89971080654277	85.535	829.5127017229397
90.00029968051554	85.665	829.1806177152821
90.09996982457224	85.794	828.8507493961597
90.20026589129306	85.924	828.5179783699932
90.29964424360332	86.053	828.1874200448055
90.39964499793435	86.183	827.8539452652285
90.5002640753957	86.314	827.5175415028389
90.5999646529909	86.444	827.1833403559503
90.700279918848	86.575	826.8461958557136
90.79967767577341	86.705	826.5112508476122
90.89968644043276	86.836	826.1733478566985
91.00030198370376	86.968	825.8324735264214
91.09999912641405	87.099	825.4937880245925
91.2002992473286	87.231	825.1521159066324
91.29968193331523	87.362	824.8126293652931
91.399663749033	87.494	824.4701406632885
91.50024030724214	87.627	824.124635578295
91.59989842737744	87.759	823.7813048141452
91.70014731523764	87.892	823.4349414457647
91.8002305897352	88.025	823.0881398395068
91.9001474661364	88.158	822.7408949534511
91.99989715249544	88.291	822.3932017115876
92.10022694583829	88.425	822.042435628573
92.19963857489394	88.558	821.6938268413724
92.30037165037753	88.693	821.3395014443104
92.40018488858587	88.827	820.9873227083826
92.49982425573104	88.961	820.634662391265
92.60003051000383	89.096	820.2788778088889
92.70005853547455	89.231	819.922593363166
92.79990743979188	89.366	819.565803438607
92.90031393596104	89.502	819.2058537809735
92.99980054236066	89.637	818.8480320305189
93.09984020090508	89.773	818.4870312847343
93.19969434858913	89.909	818.1254942163796
93.30009418438908	90.046	817.7607504818279
93.40030380837608	90.183	817.3954502918332
93.50032221997947	90.32	817.0295874352978
93.60014840794064	90.457	816.6631556454995
93.69978134995246	90.594	816.2961485973701
93.79994512526693	90.732	815.9258746224677
93.89991070607829	90.87	815.5550038913334
93.999677011623	91.008	815.1835297460493
94.09996370675474	91.147	814.8087469524271
94.20004598773725	91.286	814.433338191764
94.29992270961677	91.425	814.0572964351941
94.40030901157509	91.565	813.6779022938517
94.49976962208113	91.704	813.300568443854
94.59973442037759	91.844	812.919858219846
94.70019761552967	91.985	812.5357497679979
94.79973294058452	92.125	812.1536837459207
94.89976104159827	92.266	811.7681941976716
95.00027593180224	92.408	811.3792581774906
95.09986056699782	92.549	810.9923454585296
95.19992611994782	92.691	810.6019595119724
95.2997641183872	92.833	810.210833254172
95.40007379069316	92.976	809.8161955914838
95.50014976081509	93.119	809.4207892292252
95.59999052017875	93.262	809.0246049369089
95.70029022789159	93.406	808.6248544955197
95.79965426024195	93.549	808.2270803620377
95.90016302288856	93.694	807.8229191677528
95.99973282725658	93.838	807.420714141499
96.09974487231922	93.983	807.0148685653221
96.20019220610637	94.129	806.6053539082604
96.29969703138038	94.274	806.1977688343977
96.40031354155492	94.421	805.7836598359863
96.4999837576486	94.567	805.3714570552365
96.60007104024866	94.714	804.9555015997139
96.69988977296904	94.861	804.5386009805552
96.80011413274656	95.009	804.1178963409839
96.90006197521713	95.157	803.6962069109759
96.99973106351264	95.305	803.273518754464
97.09978968452681	95.454	802.8469512353804
97.200229678974	95.604	802.4164685199758
97.29970937082481	95.753	801.9877948593385
97.40022617401009	95.904	801.5522722179376
97.49977744519825	96.054	801.1185257541074
97.599687771822	96.205	800.6807547568023
97.69994819613639	96.357	800.2389184051572
97.79989304027306	96.509	799.7958930455243
97.90017359074352	96.662	799.3487324457165
98.00012802485666	96.815	798.9003266603031
98.09975300096873	96.968	798.4506543851858
98.1996929389198	97.122	797.9967418652195
98.29993760890595	97.277	797.5385402396169
98.39983313089307	97.432	797.0789682351169
98.50001662144633	97.588	796.6150219631236
98.59983830855765	97.744	796.1496352119757
98.69993025167831	97.901	795.6797828581657
98.80028080405305	98.059	795.2054069853475
98.90024648089155	98.217	794.7294646214432
98.99982235226923	98.375	794.2519237626657
99.10025621596672	98.535	793.766675137631
99.20027961922432	98.695	793.2797174910884
99.29988687307284	98.855	792.7910137017316
99.40030919925572	99.017	792.294382663189
99.50029251413116	99.179	791.79588049827
99.5998302322992	99.341	791.2954640416356
99.70013593858937	99.505	790.7868738360339
99.7999706135703	99.669	790.2762274369306
99.89993095799423	99.834	789.7603414368787
100.0	100.0	789.2391232999144
