VolC	MassF	Dens
0.10116549645518491	0.080000000000000002	998.04709663113408
0.20229984588108946	0.16	997.89345629311765
0.30340319670467808	0.23999999999999999	997.74030405663166
0.4044756954054351	0.32000000000000001	997.58763511846496
0.50551748657759132	0.40000000000000002	997.43544479818593
0.59390397636295389	0.47000000000000003	997.30266729581012
0.6948885743363461	0.54999999999999993	997.15136218244584
0.79584287052508784	0.63	997.00052288525012
0.89676700276949595	0.71000000000000008	996.8501451691393
0.99766110730019686	0.79000000000000004	996.70022490636597
1.098525318789209	0.86999999999999988	996.55075807351079
1.1993597703992573	0.94999999999999996	996.40174074852246
1.3001645938313546	1.03	996.25316910781305
1.4009399193706924	1.1100000000000001	996.10503942340347
1.5016858759308631	1.1900000000000002	995.95734806011626
1.6024025910964661	1.27	995.81009147282373
1.7030901911641152	1.3500000000000001	995.66326620374059
1.8037488011818925	1.4299999999999999	995.51686887976803
1.9043785449872772	1.51	995.37089620988411
2.0049795452435863	1.5900000000000001	995.22534498258426
2.1055519234749536	1.6699999999999999	995.08021206336571
2.206095800099884	1.7500000000000002	994.93549439226024
2.2940484057694976	1.8200000000000001	994.80920471268382
2.3945391627341186	1.8999999999999999	994.66525763346669
2.4950017584221533	1.9800000000000002	994.52171739840639
2.5954363092593491	2.0600000000000001	994.37858121389024
2.6958429307100049	2.1399999999999997	994.23584634945621
2.7962217373027789	2.2200000000000002	994.09351013558944
2.8965728426552619	2.2999999999999998	993.9515699615564
2.9968963594973839	2.3800000000000003	993.81002327328576
3.0971923996936401	2.46	993.66886757128714
3.1974610742642033	2.54	993.52810040861505
3.2977024934049171	2.6200000000000001	993.38771938886953
3.3979167665062162	2.7000000000000002	993.24772216423935
3.4981040021710008	2.7799999999999998	993.10810643358366
3.5982643082314794	2.8599999999999999	992.96886994055433
3.6983977917650153	2.9399999999999999	992.83001047175514
3.7985045591089999	3.02	992.6915258549385
3.8985847158747777	3.1000000000000001	992.55341395724361
3.9986383669606522	3.1800000000000002	992.41567268346751
4.0986656165639852	3.2599999999999998	992.27829997437527
4.1986665681924258	3.3399999999999999	992.14129380504494
4.2986413246742865	3.4199999999999999	992.0046521832503
4.3985899881680961	3.5000000000000004	991.86837314787658
4.498512660171337	3.5800000000000001	991.73245476737191
4.5984094415284202	3.6600000000000001	991.59689513823457
4.6982804324378682	3.7400000000000002	991.4616923835307
4.7981257324587938	3.8199999999999998	991.32684465144973
4.8979454405166409	3.8999999999999999	991.19235011388889
4.9977396549082327	3.9800000000000004	991.05820696507294
5.097508473306152	4.0599999999999996	990.92441342020504
5.1972519927624639	4.1399999999999997	990.7909677141497
5.2969703097117966	4.2199999999999998	990.65786810014549
5.3966635199738224	4.2999999999999998	990.5251128485512
5.4963317187551386	4.3799999999999999	990.39270024562029
5.595975000650558	4.46	990.26062859230581
5.6955934596438711	4.54	990.12889620309579
5.7951871891080486	4.6200000000000001	989.99750140487686
5.8947562818049271	4.7000000000000002	989.86644253582631
5.9943008298844056	4.7800000000000002	989.73571794433406
6.0938209248831363	4.8599999999999994	989.60532598795066
6.2057519158677499	4.9500000000000002	989.45903060529838
6.3052203491896028	5.0299999999999994	989.32934008095071
6.4046646115082204	5.1100000000000003	989.19997710699306
6.5040847918071591	5.1900000000000004	989.07094006824423
6.6034809784431241	5.2699999999999996	988.94222735372148
6.7028532591420804	5.3499999999999996	988.81383735575116
6.8022017209949919	5.4299999999999997	988.68576846910798
6.9015264504532086	5.5100000000000007	988.55801909017418
7.0008275333235099	5.5899999999999999	988.43058761612679
7.1001050547628495	5.6699999999999999	988.3034724441485
7.1993590992727645	5.75	988.17667197066055
7.2985897506935045	5.8300000000000001	988.05018459057999
7.3977970921978802	5.9100000000000001	987.92400869660071
7.4969812062848566	5.9900000000000002	987.79814267849667
7.5961421747728757	6.0699999999999994	987.67258492244639
7.6952800787929458	6.1500000000000004	987.54733381038056
7.7943949987815175	6.2300000000000004	987.42238771935183
7.9058719099197914	6.3200000000000003	987.28218593457518
8.0049382527013435	6.4000000000000004	987.15788259874319
8.103981858256553	6.4799999999999995	987.03387917419946
8.2030028040769949	6.5600000000000005	986.91017401165652
8.3020011669200233	6.6399999999999997	986.78676545403994
8.4009770228005323	6.7199999999999998	986.66365183598464
8.4999304469825603	6.8000000000000007	986.5408314833478
8.5988615139707747	6.8799999999999999	986.4183027127425
8.6977702975018101	6.9599999999999991	986.29606383108683
8.7966568705355304	7.04	986.17411313517471
8.8955213052461755	7.1200000000000001	986.05244891126438
8.9943636730134315	7.1999999999999993	985.93106943468297
9.1055350477022667	7.2900000000000009	985.79485572361864
9.2043307565372761	7.3700000000000001	985.67407555656939
9.3031046162694881	7.4499999999999993	985.55357467274052
9.4018566949049713	7.5300000000000002	985.43335129856962
9.5005870596083799	7.6100000000000003	985.31340364780942
9.5992957766936939	7.6899999999999995	985.19372992123567
9.6979829116148952	7.7700000000000005	985.07432830636935
9.7966485289566698	7.8499999999999996	984.9551969772175
9.8952926924250768	7.9299999999999997	984.83633409402501
9.9939154648382527	8.0099999999999998	984.71773780304602
10.104840591870893	8.0999999999999996	984.58463331031726
10.203418112759225	8.1799999999999997	984.46659730764759
10.301974433073502	8.2600000000000016	984.34882201175094
10.400509611870921	8.3399999999999999	984.23130550903329
10.49902370727327	8.4199999999999999	984.11404587094682
10.597516776457793	8.5	983.99704115384498
10.695988875648101	8.5800000000000001	983.88028939885123
10.794440060105122	8.6600000000000001	983.76378863173704
10.905172710535572	8.75	983.63302279968536
11.00357963022052	8.8300000000000001	983.51704875606333
11.101965801559492	8.9100000000000001	983.40131943080189
11.200331275748391	8.9900000000000002	983.28583278534734
11.298676102975286	9.0700000000000003	983.17058676537022
11.397000332411869	9.1500000000000004	983.0555793007187
11.495304012205034	9.2299999999999986	982.9408083053836
11.605871147348362	9.3200000000000003	982.81197097263862
11.704131314284673	9.4000000000000004	982.6976954758627
11.80237107534025	9.4800000000000004	982.58364982719479
11.900590474347792	9.5600000000000005	982.46983187505896
11.998789554073676	9.6400000000000006	982.35623945199984
12.096968356210269	9.7199999999999989	982.24287037471197
12.195126921368336	9.8000000000000007	982.12972244407445
12.305531166824309	9.8900000000000006	982.00269260305254
12.403646858262039	9.9699999999999989	981.89000723535298
12.501742432577418	10.050000000000001	981.77753604067061
12.599817925842457	10.130000000000001	981.66527675522684
12.697873373010951	10.209999999999999	981.55322709975417
12.795908807911774	10.290000000000001	981.44138477958609
12.893924263242404	10.369999999999999	981.32974748475692
13.004167807910386	10.459999999999999	981.2043977017363
13.102140910017749	10.539999999999999	981.09318834671251
13.200094127373113	10.620000000000001	980.98217670097006
13.298027487941496	10.699999999999999	980.87136039262703
13.395941018525706	10.780000000000001	980.76073703511963
13.506070069278131	10.870000000000001	980.63651340425815
13.603941544801939	10.949999999999999	980.52629207696498
13.701793266550371	11.029999999999999	980.41625614949101
13.79962525647627	11.110000000000001	980.30640317629934
13.897437535344148	11.19	980.19673069797477
13.995230122725651	11.27	980.08723624139714
14.105223268881668	11.360000000000001	979.96426467268645
14.202974071367564	11.44	979.85514023929636
14.30070523579346	11.52	979.74618601285806
14.398416776766702	11.600000000000001	979.63739946570081
14.496108707681584	11.68	979.52877805743731
14.605988704928416	11.77	979.40677318658913
14.703639003385122	11.85	979.29849420675953
14.801269725786517	11.93	979.19037234746963
14.898880880489941	12.01	979.08240501812963
14.996472474624694	12.09	978.97458961655013
15.094044514089727	12.17	978.86692352917487
15.20378969030903	12.26	978.74597438954129
15.301320190058091	12.34	978.63861686650944
15.398831145619644	12.42	978.53140041966685
15.496322557797429	12.5	978.42432239109826
15.605977035456387	12.590000000000002	978.30402173965001
15.70342691495461	12.67	978.19722897893098
15.800857245590736	12.75	978.09056626644156
15.898268023051937	12.83	977.9840309041756
15.99565924178345	12.91	977.87762018507703
16.105200975551003	13	977.75805373175376
16.202550607867337	13.08	977.65189885135419
16.299880656089485	13.16	977.54586009918671
16.39719110953974	13.239999999999998	977.43993473370813
16.494481956299616	13.320000000000002	977.33412000571798
16.603910706350366	13.41	977.21520725056109
16.701159843660587	13.489999999999998	977.1096184657091
16.798389329048462	13.569999999999999	977.00413168082889
16.895599145488575	13.65	976.89874411810865
17.004936655661151	13.74	976.78029824487521
17.102104613425091	13.819999999999999	976.67511227807813
17.199252841090683	13.900000000000002	976.57001681409861
17.296381316554456	13.98	976.46500905139158
17.405627212303092	14.069999999999999	976.3469766541026
17.502713635358045	14.149999999999999	976.24214593211593
17.599780229254495	14.23	976.13739412564894
17.696826966854001	14.31	976.03271841440483
17.805980776826086	14.399999999999999	975.91504568037146
17.902985224155127	14.48	975.81052229029774
17.999969722580637	14.56	975.706066158966
18.096934239986059	14.640000000000001	975.6016744523771
18.205995396978718	14.729999999999999	975.48430725823232
18.302917342621452	14.81	975.380043033177
18.399819199186577	14.890000000000001	975.27583436151428
18.496700929649815	14.970000000000001	975.17167840063667
18.605668771828196	15.06	975.05456240944739
18.702507606022625	15.140000000000001	974.95050901501179
18.799326190847246	15.220000000000001	974.8464994410906
18.896124484453498	15.299999999999999	974.74253084157681
19.004998256823701	15.390000000000001	974.62561160051575
19.101753287372723	15.470000000000001	974.5217206216746
19.198487888505859	15.550000000000001	974.41786172401214
19.295202013646421	15.629999999999999	974.31403206302264
19.403980869775058	15.720000000000001	974.197255101118
19.500651323630116	15.800000000000001	974.09347812905992
19.597301148685055	15.879999999999999	973.98972151338774
19.70600748022062	15.970000000000001	973.87301611965415
19.802613297714654	16.050000000000001	973.76929334177817
19.899198322768392	16.129999999999999	973.66558206031311
19.995762500764684	16.210000000000001	973.56187944582507
20.104372212871869	16.300000000000001	973.4452208455308
20.200891904607694	16.379999999999999	973.34152726916466
20.297390571686634	16.460000000000001	973.23783354033458
20.405926367589153	16.550000000000001	973.12117440958718
20.502380160008585	16.629999999999999	973.01747101904596
20.598812739872901	16.710000000000001	972.91375869756996
20.695224044920639	16.789999999999999	972.81003464612695
20.803661254212848	16.879999999999999	972.69332758906057
20.900027138902068	16.960000000000001	972.58956934265836
20.996371547673139	17.039999999999999	972.48579065521199
21.104733254377852	17.130000000000003	972.36901174335821
21.201031805089816	17.210000000000001	972.26518041270685
21.297308669092839	17.289999999999999	972.16131999089066
21.405594132187268	17.380000000000003	972.04443881480256
21.501824680140082	17.460000000000001	971.9405074399898
21.598033321188119	17.539999999999999	971.83653839320698
21.694219982930381	17.620000000000001	971.73252894457767
21.802403613919015	17.710000000000001	971.61546663355887
21.898543325041945	17.789999999999999	971.51136230473844
21.994660824703555	17.870000000000001	971.40720909725826
22.102766367344586	17.960000000000001	971.28997495912438
22.19883641373719	18.039999999999999	971.18570894989773
22.29488400781144	18.120000000000001	971.08138567319986
22.402910615385355	18.210000000000001	970.96395021708292
22.498910235388795	18.289999999999999	970.85949641234129
22.594887153836147	18.370000000000001	970.75497704704071
22.702833950161253	18.459999999999997	970.63731111856987
22.798762356275752	18.539999999999999	970.53264371036482
22.894667803545982	18.620000000000001	970.42790255174043
23.002533884139467	18.709999999999997	970.30997735942321
23.09839026406588	18.790000000000003	970.20507087017734
23.19422342014844	18.870000000000001	970.10008255115497
23.302007853418193	18.960000000000001	969.98186969195638
23.397791371126246	19.040000000000003	969.87669899695254
23.505519738829335	19.129999999999999	969.75827451032387
23.601253221091302	19.210000000000001	969.6529099944496
23.696963017912157	19.289999999999999	969.54745034357109
23.804608115569824	19.379999999999999	969.42869141539495
23.900267280686599	19.460000000000001	969.32302133826931
23.995902476427528	19.539999999999999	969.21724837696559
24.103463305881171	19.629999999999999	969.0981277649164
24.199047259670607	19.710000000000001	968.99212805254319
24.294606953749355	19.789999999999999	968.8860178419983
24.402082494340714	19.879999999999999	968.76650877895634
24.497590323012673	19.960000000000001	968.66015578632198
24.605007273307418	20.050000000000001	968.54036753980859
24.700462805482434	20.129999999999999	968.43376103830599
24.795893576801216	20.210000000000001	968.32703156816285
24.903223476479543	20.300000000000001	968.20681103047082
24.998601307444655	20.380000000000003	968.09981254228228
25.105871400054625	20.469999999999999	967.97928351047904
25.20119584647345	20.549999999999997	967.87200564380294
25.296495015658003	20.630000000000003	967.76459276386697
25.40367624234695	20.719999999999999	967.64358909772056
25.498921365002396	20.800000000000001	967.53588188499748
25.594140896566682	20.880000000000003	967.42803270214404
25.70123215398365	20.969999999999999	967.30652994456955
25.796396967339085	21.050000000000001	967.19837181944285
25.903426407521462	21.140000000000001	967.07651600454528
25.998536040805458	21.219999999999999	966.9680392048316
26.10550314195882	21.310000000000002	966.8458194773691
26.200557129462883	21.390000000000001	966.73701443789651
26.29558476854092	21.469999999999999	966.62805167125362
26.402459238040699	21.560000000000002	966.50527745792965
26.497430540031335	21.640000000000001	966.39597269476462
26.604241364051003	21.73	966.27280856985408
26.699155854854833	21.809999999999999	966.16315267003245
26.805902498339279	21.899999999999999	966.03958844987562
26.900759700910054	21.98	965.92957244985985
26.99558977846862	22.059999999999999	965.81938394028589
27.102241060237553	22.149999999999999	965.6952132661321
27.197013143214338	22.23	965.58465180057271
27.303598909568404	22.32	965.46005673477885
27.398312514743839	22.400000000000002	965.34911379613823
27.50483222087118	22.489999999999998	965.22408486045379
27.599486862973251	22.57	965.11275211610587
27.694113589310877	22.650000000000002	965.00123310357446
27.800535153856977	22.739999999999998	964.87554934470234
27.895102200294534	22.82	964.76362861183065
28.001456349929189	22.91	964.63748846525243
28.095963227217563	22.989999999999998	964.52515814335891
28.202249410842327	23.080000000000002	964.39855286389627
28.296695628561729	23.16	964.28580527506824
28.402913293902394	23.25	964.1587263330324
28.497298360712985	23.330000000000002	964.04555399165042
28.603446954600471	23.419999999999998	963.91799307448684
28.697770378491157	23.5	963.80438868862166
28.803849347140307	23.59	963.67633770240889
28.898110635675444	23.669999999999998	963.56229417509167
29.004119424961356	23.760000000000002	963.43374524589717
29.098318085525314	23.84	963.31925567626024
29.204256141257197	23.93	963.19020115135686
29.298391681296561	24.010000000000002	963.07525883565177
29.404258449488758	24.099999999999998	962.94569128458954
29.498330376752008	24.18	962.83028971707972
29.604125303892211	24.27	962.70020193262042
29.698133126666693	24.349999999999998	962.58433480634767
29.80385565998094	24.440000000000001	962.45371980525965
29.897798887327127	24.52	962.33738101269239
30.003448475041711	24.610000000000003	962.20623203641082
30.097326617024372	24.690000000000001	962.08941566996737
30.202902708624187	24.779999999999998	961.95772618511546
30.296715276540564	24.859999999999999	961.84042653757035
30.402217323023965	24.949999999999999	961.70819023634874
30.495963829628643	25.030000000000001	961.59040180111879
30.601391283758584	25.119999999999997	961.45761260156314
30.695071243484971	25.199999999999999	961.33933007287669
30.800423560036272	25.290000000000003	961.20598211898198
30.905735877898277	25.380000000000003	961.07233606032867
30.999313125217288	25.460000000000001	960.95328805365364
31.104549476070542	25.550000000000001	960.81907472143735
31.198058957267339	25.629999999999995	960.69952009725773
31.303218802051802	25.719999999999999	960.56473420671705
31.396660039203176	25.800000000000001	960.44466836768095
31.501742841710385	25.890000000000001	960.30930485943827
31.595115359529757	25.969999999999999	960.18872340835298
31.700120586630948	26.059999999999999	960.05277744797297
31.805084529684045	26.150000000000002	959.9165212500003
31.898351034538631	26.229999999999997	959.79514316478026
32.003236593276299	26.32	959.65829755460209
32.096433189714432	26.400000000000002	959.53639362517015
32.201239839784485	26.490000000000002	959.39895433453296
32.294366063401547	26.57	959.27652086584658
32.399093284299028	26.66	959.13848384892367
32.503778245110155	26.75	959.00012882637634
32.59679594947611	26.829999999999998	958.87687877565145
32.701400692958096	26.919999999999998	958.73792026706758
32.79434686592041	27	958.61413220934514
32.898870882209529	27.089999999999996	958.4745667269151
33.003351955704119	27.18	958.33467856800723
33.096187856343626	27.260000000000002	958.21006193359915
33.200587431725147	27.350000000000001	958.06956188873517
33.304943659125946	27.439999999999998	957.92873670122469
33.39766824699614	27.52	957.80328515699932
33.501942216680824	27.609999999999999	957.66184367756466
33.594593468108677	27.689999999999998	957.53584313424074
33.698784689839449	27.779999999999998	957.39378275311253
33.80293190715674	27.870000000000001	957.25139373416175
33.895470160209975	27.950000000000003	957.12454930527815
33.999533890074787	28.039999999999999	956.98153780343648
34.103553227412029	28.129999999999999	956.83819589813857
34.195977485479823	28.210000000000001	956.71050304940445
34.299912608812541	28.299999999999997	956.56653557042
34.403802958507654	28.389999999999997	956.42223618018966
34.496112242963342	28.470000000000002	956.29369103940394
34.59991766560659	28.560000000000002	956.14876346822689
34.703677940793519	28.649999999999999	956.00350273209278
34.795871291732347	28.73	955.87410207948119
34.899545940851681	28.82	955.72821103132776
35.003175076258017	28.910000000000004	955.58198581457248
35.095251553192163	28.989999999999998	955.45172707248514
35.198794378042358	29.080000000000002	955.30486988102143
35.302291330738733	29.170000000000002	955.15767776312657
35.405742289070332	29.260000000000002	955.01015051293825
35.497659985891822	29.34	954.87873368996964
35.601023735992662	29.43	954.73057295189562
35.70434114418056	29.520000000000003	954.58207664749727
35.796139840310168	29.599999999999998	954.44979814484918
35.899369391625406	29.690000000000001	954.30066775568264
36.002552261824761	29.780000000000001	954.15120160113895
36.105688335472514	29.870000000000001	954.00139966616234
36.19732546687851	29.949999999999999	953.86796051021236
36.300372835739651	30.039999999999999	953.71752437880139
36.403373080388327	30.130000000000003	953.56675257634868
36.494889202274372	30.209999999999997	953.43245147072287
36.597800131479183	30.300000000000001	953.28104589023496
36.700663617591324	30.390000000000001	953.12930497113655
36.803479552304097	30.48	952.97722887948851
36.894831487867648	30.559999999999999	952.84176890650315
36.997557311581311	30.649999999999999	952.68906025549018
37.100235277080557	30.740000000000002	952.5360170560707
37.202865280279276	30.830000000000002	952.38263957354638
37.305447218189656	30.919999999999998	952.22892809816426
37.396590729502918	31	952.0920155405995
37.499081600338222	31.09	951.93767406892516
37.601524114577842	31.180000000000003	951.78299958082107
37.703918173549191	31.269999999999996	951.62799246126235
37.794894357471968	31.350000000000001	951.48992943872599
37.897196624570839	31.440000000000001	951.33429514951524
37.999450157649974	31.530000000000001	951.17832947359523
38.101654862411245	31.619999999999997	951.02203288695046
38.203810645689238	31.710000000000001	950.86540588835419
38.294574642069819	31.790000000000003	950.72590492766005
38.39663776792753	31.879999999999995	950.56865525795183
38.498651709544632	31.969999999999999	950.41107674287628
38.600616378184846	32.060000000000002	950.25316996740241
38.702531686256037	32.149999999999999	950.09493553803645
38.804397547311694	32.240000000000002	949.93637408255665
38.894903399303395	32.32	949.79515655015678
38.996675628638414	32.409999999999997	949.63597916561912
39.098398167670815	32.5	949.47647668564605
39.200070934420694	32.590000000000003	949.31664981824611
39.301693848058427	32.68	949.15649929140977
39.403266828905068	32.769999999999996	948.99602585284208
39.504789798432398	32.859999999999999	948.83523026969533
39.594990390622073	32.940000000000005	948.69203105534586
39.6964186841372	33.030000000000001	948.53062913759572
39.797796745935564	33.119999999999997	948.36890739826003
39.899124501960657	33.210000000000001	948.20686667755365
40.00040187930405	33.300000000000004	948.0445078338189
40.101628806204062	33.390000000000001	947.88183174324911
40.20280521204451	33.479999999999997	947.71883929961871
40.303931027352959	33.57	947.55553141400844
40.405006183798946	33.660000000000004	947.39190901453048
40.494808184535543	33.739999999999995	947.2462036088034
40.59578746961688	33.829999999999998	947.08198971889078
40.696715904832274	33.920000000000002	946.91746408949018
40.797593426271398	34.009999999999998	946.75262771234304
40.89841997115407	34.100000000000001	946.58748159487823
40.999195477827385	34.189999999999998	946.4220267599386
41.099919885762453	34.280000000000001	946.25626424550398
41.200593135551095	34.369999999999997	946.09019510441703
41.301215168902182	34.460000000000001	945.92382040410564
41.401785928637963	34.549999999999997	945.75714122630848
41.50230535869013	34.640000000000001	945.59015866679954
41.602773404095622	34.729999999999997	945.42287383511155
41.703190010992436	34.82	945.25528785426241
41.803555126615009	34.910000000000004	945.08740186047748
41.903868699289639	35	944.91921700291641
42.004130678429703	35.089999999999996	944.75073444339966
42.104341014530519	35.18	944.58195535613106
42.204499659164284	35.270000000000003	944.41288092742718
42.304606564974719	35.359999999999999	944.24351235544248
42.404661685671464	35.449999999999996	944.07385084989608
42.504664976024536	35.539999999999999	943.90389763180019
42.604616391858372	35.630000000000003	943.73365393318716
42.70451589004594	35.719999999999999	943.56312099683987
42.804363428502576	35.809999999999995	943.39230007602032
42.904158966179594	35.899999999999999	943.22119243419911
43.003902463057955	35.990000000000002	943.04979934478717
43.103593880141517	36.079999999999998	942.87812209086599
43.203233179450478	36.170000000000002	942.70616196492301
43.30282032401427	36.259999999999998	942.5339202685808
43.402355277864736	36.350000000000001	942.36139831233493
43.501838006028741	36.439999999999998	942.18859741528593
43.601268474521085	36.530000000000001	942.01551890487838
43.700646650336829	36.620000000000005	941.8421641166351
43.799972501443904	36.710000000000001	941.66853439389661
43.899245996775292	36.799999999999997	941.49463108756004
43.998467106221298	36.890000000000001	941.32045555582033
44.097635800621418	36.980000000000004	941.14600916390907
44.196752051756398	37.07	940.97129328383903
44.295815832340125	37.159999999999997	940.7963092941493
44.394827116011037	37.25	940.62105857964605
44.504778052052117	37.350000000000001	940.42602442995678
44.603678426450067	37.439999999999998	940.25021520413338
44.702526227742766	37.530000000000001	940.074143599124
44.801321433280556	37.619999999999997	939.89781102286042
44.900064021294284	37.710000000000001	939.72121888826121
44.998753970886298	37.799999999999997	939.54436861298518
45.097391262021425	37.890000000000001	939.36726161918727
45.195975875517739	37.980000000000004	939.18989933327271
45.305452530266628	38.080000000000005	938.99253244993474
45.403925876208774	38.170000000000002	938.81463591598924
45.502346490190725	38.259999999999998	938.63648855219719
45.600714356440427	38.350000000000001	938.45809179991829
45.699029459990911	38.440000000000005	938.27944710354279
45.797291786670577	38.530000000000001	938.10055591025832
45.895501323093526	38.619999999999997	937.92141966981853
46.004561100420041	38.719999999999999	937.72209376789397
46.102659150265694	38.810000000000002	937.54244497682225
46.200704373126193	38.899999999999999	937.3625556628441
46.298696758741478	38.990000000000002	937.18242728386008
46.396636297586035	39.079999999999998	937.00206129917581
46.505396015952648	39.18	936.80137775257276
46.603223961358928	39.269999999999996	936.62051495320804
46.700999034946847	39.359999999999999	936.43941909480679
46.798721230103908	39.450000000000003	936.25809164015959
46.896390540899645	39.539999999999999	936.07653405235294
47.004849966097403	39.640000000000001	935.8745352695945
47.10240761566476	39.729999999999997	935.69249664994868
47.199912366668798	39.82	935.51023244858038
47.297364215873429	39.910000000000004	935.32774412760409
47.394763160670841	40	935.14503314837316
47.502922159666909	40.100000000000001	934.94176158303208
47.600209411585134	40.189999999999998	934.75858534192048
47.697443754885541	40.280000000000001	934.57519098194734
47.794625189431684	40.369999999999997	934.39157995925348
47.902542508223448	40.469999999999999	934.18731537008046
47.999612248631344	40.560000000000002	934.00325172203236
48.096629083481496	40.649999999999999	933.81897592935059
48.204363519557475	40.75	933.61397799769122
48.301268672612821	40.839999999999996	933.42925909516566
48.398120928536123	40.93	933.24433254339328
48.494920291092733	41.020000000000003	933.05919978160068
48.60241310814704	41.120000000000005	932.85325660832279
48.699100821512452	41.210000000000001	932.66769322651362
48.795735656347695	41.299999999999997	932.48192809177306
48.903045684014373	41.399999999999999	932.27528749630835
48.999568905777465	41.490000000000002	932.08910111519765
49.096039268320176	41.579999999999998	931.90271740325113
49.203166573306106	41.68	931.69539467120353
49.299525367995976	41.770000000000003	931.5085990073984
49.395831326923421	41.859999999999999	931.32161039492325
49.502775990275076	41.959999999999994	931.1136206738978
49.59897043498394	42.049999999999997	930.92622931474671
49.695112071212762	42.140000000000001	930.73864934444589
49.801874187196539	42.240000000000002	930.5300076277374
49.897904370574238	42.329999999999998	930.34203401689058
50.004542675017703	42.43	930.13295832769575
50.100461451246112	42.520000000000003	929.94459719432359
50.19632747250089	42.609999999999999	929.75605461797727
50.30278341446607	42.710000000000001	929.54635171104371
50.398538101400845	42.799999999999997	929.35743053147041
50.504870367562852	42.899999999999999	929.14731028604024
50.60051377301761	42.990000000000002	928.95801648619818
50.696104485369986	43.079999999999998	928.76854825334874
50.802254602860366	43.18	928.55782502131888
50.897734116148619	43.269999999999996	928.36799287684948
51.003760711454774	43.369999999999997	928.15686854754858
51.099129084397823	43.460000000000001	927.96667832395974
51.205032223916014	43.560000000000002	927.75515934222551
51.300289517259131	43.649999999999999	927.5646168071795
51.395494215685154	43.740000000000002	927.37390938164538
51.501215545843102	43.840000000000003	927.16182039874832
51.596309257464299	43.93	926.970769038752
51.701907304815222	44.030000000000001	926.75830102625025
51.7968900945434	44.119999999999997	926.56691132999674
51.902364931987101	44.219999999999999	926.35407046842431
51.997236866083554	44.310000000000002	926.16234796221545
52.102588567914246	44.409999999999997	925.94914035119962
52.197349713801181	44.5	925.75709048762872
52.302578355499627	44.600000000000001	925.54352214393725
52.397228781575208	44.690000000000005	925.35115030018915
52.502334439604795	44.789999999999999	925.13722715589608
52.596874215060765	44.879999999999995	924.9445386321396
52.701856966667329	44.979999999999997	924.73026653290367
52.796286161310782	45.07	924.53726655079481
52.901146084325923	45.170000000000002	924.32265125424158
52.99546476840441	45.259999999999998	924.12934495552349
53.100201941053548	45.359999999999999	923.91439212975104
53.20487453974394	45.460000000000001	923.6992639029794
53.299024685797505	45.550000000000004	923.50549979713094
53.403574653852402	45.649999999999999	923.29004251671404
53.497614467628907	45.739999999999995	923.09598471946333
53.602041883440108	45.839999999999996	922.88020382136926
53.695971435399692	45.93	922.68585718293275
53.800276377109	46.030000000000001	922.46975800918108
53.904516890015287	46.129999999999995	922.25349343553194
53.998278282735889	46.219999999999999	922.05871509241194
54.102396439938573	46.32	921.84214021333162
54.196047747151901	46.410000000000004	921.64708490158296
54.300043625405237	46.509999999999998	921.4302048175
54.403975176869544	46.609999999999999	921.21316611505733
54.497458591054318	46.700000000000003	921.01769679822462
54.601267979056658	46.800000000000004	920.80036048834097
54.705013100435785	46.899999999999999	920.58286949889703
54.798328778598972	46.989999999999995	920.3869964571594
54.901951849512379	47.089999999999996	920.16921522962957
54.995157715006648	47.18	919.97308310157632
55.098658807886181	47.280000000000001	919.75501633961926
55.202095730415024	47.380000000000003	919.53680115218856
55.295134111118472	47.469999999999999	919.34028162229481
55.398449163363154	47.57	919.12178788874508
55.501700101000274	47.670000000000002	918.90314934693151
55.604886942771834	47.770000000000003	918.68436721591161
55.697700313681288	47.859999999999999	918.4873415250978
55.800765423999451	47.960000000000001	918.26828988118223
55.903766491293581	48.060000000000002	918.04909810136655
55.996412709684321	48.149999999999999	917.85170664447423
56.099292143673651	48.25	917.63225179728011
56.202107585064773	48.350000000000001	917.41266014568748
56.304859050648936	48.449999999999996	917.19293281030798
56.397280683980554	48.539999999999999	916.99506311339121
56.4999106406419	48.640000000000001	916.77508101446801
56.602476668358733	48.740000000000002	916.55496640006777
56.704978782635507	48.840000000000003	916.33472033471514
56.797176052027574	48.93	916.13638735363031
56.899556772232472	49.030000000000001	915.91589441302187
57.001873621970702	49.130000000000003	915.69527302781739
57.104126615354545	49.230000000000004	915.47452420698198
57.196099723580737	49.32	915.27574213327932
57.298231427431936	49.419999999999995	915.05475391384027
57.400299313727899	49.519999999999996	914.8336411049936
57.502303395096888	49.619999999999997	914.61240466086178
57.604243683773589	49.719999999999999	914.39104552164326
57.695935410621871	49.810000000000002	914.19171815795403
57.79775452545929	49.909999999999997	913.97012843873267
57.899509880815515	50.009999999999998	913.7484186728567
58.00120148734608	50.109999999999999	913.52658974685107
58.102829355290964	50.210000000000001	913.30464253364619
58.20439349447124	50.310000000000002	913.08257789265986
58.295746739416423	50.399999999999999	912.88262001450119
58.397189819485021	50.5	912.66033458037703
58.498569196868999	50.600000000000001	912.43793413510411
58.599884879723575	50.700000000000003	912.21541948617232
58.701136875770089	50.799999999999997	911.99279142797354
58.802325192292884	50.899999999999999	911.77005074188025
58.90344983613808	51	911.54719819635488
59.00451081371039	51.100000000000001	911.32423454702734
59.095411263799789	51.190000000000005	911.12347288316528
59.196351291513963	51.289999999999999	910.90030017290371
59.297227669022689	51.390000000000001	910.67701847859291
59.398040400997395	51.490000000000002	910.4536285068184
59.498789491662116	51.590000000000003	910.23013095184263
59.599474944792959	51.690000000000005	910.00652649571691
59.700096763718221	51.790000000000006	909.78281580839985
59.800654951316346	51.890000000000001	909.55899954784331
59.901149510017561	51.990000000000002	909.33507836013382
60.001580441803796	52.090000000000003	909.11105287960277
60.101947748207962	52.190000000000005	908.88692372893104
60.202251430315513	52.290000000000006	908.66269151928145
60.302491488764446	52.390000000000001	908.43835685041017
60.402667923747231	52.490000000000002	908.21392031080427
60.502780735010873	52.590000000000003	907.98938247778915
60.602829921858948	52.690000000000005	907.76474391766499
60.702815483152385	52.790000000000006	907.54000518582404
60.802737417312194	52.890000000000001	907.31516682689301
60.90259572232042	52.990000000000002	907.09022937484951
61.00239039572277	53.090000000000003	906.86519335316166
61.102121434630398	53.190000000000005	906.64005927491246
61.201788835722667	53.290000000000006	906.41482764293937
61.301392595249858	53.390000000000001	906.18949894996922
61.400932709035416	53.490000000000002	905.96407367874633
61.500409172479486	53.590000000000003	905.73855230217805
61.599821980561423	53.690000000000005	905.51293528346218
61.699171127843712	53.790000000000006	905.28722307623639
61.798456608474872	53.890000000000008	905.06141612470788
61.897678416193123	53.990000000000002	904.83551486379486
61.996836544330193	54.090000000000003	904.60951971926875
62.095930985815627	54.190000000000005	904.38343110790026
62.204861304440143	54.300000000000004	904.13462616775496
62.303821979173222	54.400000000000006	903.90834259332007
62.402718942821302	54.500000000000007	903.68196678831623
62.501552186706213	54.600000000000001	903.45549913406319
62.600321701769744	54.700000000000003	903.22894000360782
62.699027478577953	54.800000000000004	903.00228976186315
62.797669507325828	54.900000000000006	902.77554876574845
62.896247777842348	55.000000000000007	902.54871736433597
63.004610222072607	55.110000000000007	902.29909881185642
63.10305456559734	55.210000000000001	902.07207866145086
63.201435117090654	55.310000000000002	901.84496913955968
63.299751864935317	55.410000000000004	901.61777056458527
63.398004797175602	55.510000000000005	901.39048324782254
63.496193901522815	55.610000000000007	901.16310749360241
63.604128180020595	55.720000000000006	900.91289237356125
63.702183204342546	55.82	900.68533186108618
63.800174360621185	55.920000000000002	900.45768381184439
63.898101635263039	56.020000000000003	900.22994850310283
63.995965014371968	56.120000000000005	900.00212620589662
64.103540915102556	56.230000000000004	899.75142152331
64.201270067046636	56.330000000000005	899.52341740559064
64.298935278520446	56.43	899.2953271014959
64.396536534452324	56.530000000000001	899.06715085798783
64.503824029005287	56.640000000000001	898.81605801808053
64.601290928039802	56.740000000000002	898.58770208122746
64.698693823115676	56.840000000000003	898.35926093605542
64.796032698092048	56.940000000000005	898.13073480777564
64.903031497789485	57.049999999999997	897.87925817391942
65.000235876943961	57.149999999999999	897.65055429233405
65.097376184445196	57.25	897.4217660949563
65.204156499525098	57.359999999999999	897.17000193855665
65.301162200646985	57.460000000000001	896.94103734257124
65.398103776421635	57.560000000000002	896.71198905454867
65.504665423814203	57.670000000000002	896.45993950312698
65.601472278371062	57.769999999999996	896.2307160838709
65.698214951949524	57.869999999999997	896.00140955669553
65.804557741979593	57.979999999999997	895.74907660259692
65.901165575648747	58.079999999999998	895.51959613236068
65.997709170975625	58.18	895.29003310250118
66.103832908059516	58.289999999999999	895.03741861590197
66.200241541360668	58.390000000000001	894.80768275982314
66.296585877427006	58.489999999999995	894.5778648602834
66.402490360767274	58.599999999999994	894.32497060175729
66.498699609694654	58.699999999999996	894.09498092912736
66.604455449899774	58.809999999999995	893.84189809806344
66.70052952544566	58.909999999999997	893.61173733326757
66.796539202093243	59.009999999999998	893.38149532839248
66.90207544192512	59.119999999999997	893.12813546565826
66.997949815998325	59.219999999999992	892.89772333114115
67.103337174370367	59.330000000000005	892.64417667282351
67.19907615725819	59.430000000000007	892.41359503480783
67.304314536275854	59.540000000000006	892.15986225918766
67.399918038629778	59.640000000000001	891.92911172525555
67.495456994856795	59.740000000000002	891.69828097334857
67.600475271511115	59.850000000000001	891.4442746523805
67.695878614219225	59.950000000000003	891.21327587162318
67.800747666194283	60.060000000000002	890.95908503406406
67.896015304727612	60.160000000000004	890.72791879422834
68.000735032106817	60.270000000000003	890.47354405989313
68.095866875483807	60.370000000000005	890.24221091857748
68.200437178053946	60.480000000000004	889.98765289481105
68.295433135074461	60.579999999999998	889.75615339904414
68.399853912441145	60.689999999999998	889.50141268243965
68.504196326989089	60.799999999999997	889.2465765045738
68.598985043500022	60.899999999999999	889.01482454837264
68.703177779773156	61.009999999999998	888.75980656984621
68.797830379493959	61.109999999999999	888.52788960314228
68.901873337139492	61.219999999999999	888.27269040061628
68.996389728916682	61.319999999999993	888.040608945033
69.100282807777191	61.429999999999993	887.78522908979676
69.204097338825036	61.539999999999992	887.5297548335426
69.298406000890694	61.639999999999993	887.29742372200667
69.402070501121756	61.750000000000007	887.04176967618093
69.496242726364471	61.850000000000009	886.80927537581158
69.599757096517763	61.960000000000001	886.55344210365843
69.703192787657215	62.07	886.29751517537443
69.797156936230607	62.170000000000002	886.06477318927421
69.900442347015712	62.280000000000001	885.80866789073355
70.003649000417411	62.390000000000001	885.55246938426603
70.097404865074353	62.490000000000002	885.31948089791058
70.200461089229876	62.600000000000001	885.06310487721316
70.303438478411124	62.710000000000001	884.80663609744317
70.396985853962732	62.810000000000002	884.57340229801025
70.499812666581917	62.920000000000002	884.31675686238577
70.602560567505122	63.029999999999994	884.0600191183064
70.695899251054286	63.129999999999995	883.82654119754716
70.798496429824738	63.239999999999995	883.56962766013589
70.901014621107578	63.349999999999994	883.31262226736158
71.003453799074151	63.460000000000008	883.05552517565775
71.096511737584251	63.560000000000002	882.82172110530303
71.198800000641143	63.670000000000002	882.56444938765458
71.301009175901626	63.780000000000001	882.30708642815523
71.403139237990615	63.890000000000001	882.04963238462074
71.495916075796387	63.990000000000002	881.81550434733231
71.597895033601858	64.099999999999994	881.55787685552605
71.699794805069644	64.209999999999994	881.30015874064657
71.801615365269313	64.319999999999993	881.04235016173527
71.903356689379493	64.429999999999993	880.78445127808322
71.995780022816476	64.530000000000001	880.54991951807176
72.097370009484933	64.640000000000001	880.29184867752838
72.198880688449435	64.75	880.03368799670966
72.300312035286098	64.859999999999999	879.77543763551421
72.401664025662754	64.969999999999999	879.51709775387133
72.502936635335288	65.079999999999998	879.25866851169735
72.604129840140914	65.189999999999998	879.00015006881358
72.696054737373089	65.290000000000006	878.76505603135115
72.797096284246152	65.400000000000006	878.50636773941721
72.898058356375628	65.510000000000005	878.24759071060748
72.998940929862542	65.620000000000005	877.98872510373269
73.099743980858136	65.730000000000004	877.72977107714394
73.200467485556715	65.840000000000003	877.47072878864924
73.301111420186743	65.950000000000003	877.2115983954136
73.401675761001144	66.060000000000002	876.95238005384681
73.502160484273134	66.170000000000002	876.6930739195609
73.602565566278528	66.280000000000001	876.43368014716566
73.702890983290587	66.390000000000001	876.17419889021562
73.803136711572819	66.5	875.91463030113459
73.903302727359531	66.609999999999999	875.65497453099238
74.003389006850099	66.719999999999999	875.39523172944973
74.103395526196138	66.829999999999998	875.1354020446181
74.203322261489916	66.939999999999998	874.8754856229358
74.303169188748811	67.049999999999997	874.61548260899792
74.402936283904353	67.159999999999997	874.35539314544462
74.5026235227879	67.269999999999996	874.0952173728067
74.602230881116284	67.379999999999995	873.83495542935611
74.701758334478555	67.490000000000009	873.57460745096921
74.801205858315399	67.600000000000009	873.31417357090618
74.900573427913173	67.710000000000008	873.05365391976147
74.999861018378169	67.820000000000007	872.79304862518734
75.09906860462678	67.930000000000007	872.53235781180274
75.198196161367051	68.040000000000006	872.27158160100407
75.297243663075818	68.150000000000006	872.01072011072631
75.396211083992114	68.260000000000005	871.74977345539446
75.504084180769368	68.379999999999995	871.46500737632869
75.602884075593749	68.489999999999995	871.20388300141133
75.701603808246446	68.600000000000009	870.94267379034795
75.800243351771925	68.710000000000008	870.68137984096393
75.898802678869814	68.820000000000007	870.42000124650394
75.997281761878483	68.930000000000007	870.15853809548162
76.095680572753608	69.040000000000006	869.89699047147133
76.202933146597815	69.159999999999997	869.61156954168359
76.301164023311273	69.269999999999996	869.34984553949994
76.399314538558926	69.379999999999995	869.08803728922828
76.497384662505667	69.489999999999995	868.82614485209785
76.604278530664118	69.609999999999999	868.54034806153993
76.702180465084055	69.719999999999999	868.27827976842741
76.800001912748755	69.829999999999998	868.01612743877376
76.89774284164686	69.939999999999998	867.75389110785864
77.004277439887858	70.060000000000002	867.46771934057188
77.101849905283672	70.170000000000002	867.20530745400686
77.199341749114211	70.280000000000001	866.94281163063999
77.296752936783847	70.390000000000001	866.68023187608151
77.402927657465341	70.509999999999991	866.39368550878794
77.50017008554741	70.620000000000005	866.13093024513853
77.597331746024011	70.730000000000004	865.86809101717245
77.703234125386118	70.850000000000009	865.58126151993974
77.800226785654473	70.960000000000008	865.31824662971337
77.89713855942874	71.069999999999993	865.05514766027147
78.002768196489811	71.189999999999998	864.76803464481065
78.099510713033922	71.299999999999997	864.50475968172736
78.196172215942525	71.409999999999997	864.24140043578768
78.301528681885443	71.530000000000001	863.95400321451643
78.39802065241463	71.640000000000001	863.69046745059029
78.503192067581523	71.760000000000005	863.40287742005069
78.599514308419856	71.870000000000005	863.13916466643036
78.695755301637277	71.980000000000004	862.87536706986361
78.800652756531093	72.099999999999994	862.58749094348946
78.896723710499089	72.209999999999994	862.32351547583266
79.001435548212356	72.330000000000013	862.03544492611354
79.097336240599731	72.439999999999998	861.77129085987667
79.201862212609015	72.560000000000002	861.48302503307809
79.297592409981348	72.670000000000002	861.21869152948443
79.401932255330507	72.789999999999992	860.93022944794939
79.497491712550655	72.899999999999991	860.66571555220412
79.601645157197694	73.019999999999996	860.37705610925218
79.697033616845275	73.129999999999995	860.11236074610656
79.80100037300781	73.25	859.82350270100778
79.896217564757023	73.359999999999999	859.558624669957
79.999997330258822	73.480000000000004	859.26956664301792
80.103679410460202	73.599999999999994	858.98040368218767
80.198635427895113	73.709999999999994	858.71524508155471
80.302130028478942	73.829999999999998	858.42587976151231
80.396914035015669	73.939999999999998	858.16053487982617
80.500220814554012	74.060000000000002	857.87096544866495
80.603429459396182	74.180000000000007	857.58128877730292
80.697951089925922	74.290000000000006	857.31565715860143
80.800971361800833	74.409999999999997	857.02577340907374
80.903893200468161	74.530000000000001	856.73578077401567
80.998151656753819	74.640000000000001	856.46985801835353
81.100884529407182	74.760000000000005	856.17965496036527
81.203518648268926	74.879999999999995	855.88934117024587
81.297513073076843	74.989999999999995	855.62312233975854
81.399957589419344	75.109999999999999	855.33259438854407
81.502303008098778	75.22999999999999	855.04195364928682
81.59603248193757	75.339999999999989	854.7754332465588
81.698187615792619	75.460000000000008	854.48457419931196
81.800243283627623	75.579999999999998	854.19360009116144
81.902199353281517	75.700000000000003	853.90251009139661
82.004055689549674	75.819999999999993	853.61130334288487
82.097336266695947	75.929999999999993	853.34426050817024
82.199001057953552	76.049999999999997	853.05282749648927
82.300565703494144	76.170000000000002	852.76127508090735
82.402030055635421	76.290000000000006	852.46960229706247
82.503393963418787	76.409999999999997	852.17780815280844
82.596222509575085	76.519999999999996	851.91022270441317
82.697393464793691	76.640000000000001	851.61819307596352
82.798463516091701	76.759999999999991	851.32603903100789
82.899432499172377	76.88000000000001	851.03375946549477
83.000300246223787	77	850.74135324622512
83.101066585886059	77.120000000000005	850.4488192107433
83.201731343196258	77.239999999999995	850.15615616700188
83.302294339569599	77.359999999999999	849.86336289339897
83.402755392732502	77.480000000000004	849.57043813832479
83.50311431669293	77.600000000000009	849.27738062009348
83.603370921716873	77.719999999999999	848.98418902693493
83.703525014262809	77.840000000000003	848.69086201656273
83.803576396960494	77.959999999999994	848.39739821619423
83.903524868570543	78.079999999999998	848.10379622237679
84.003370223945097	78.200000000000003	847.81005460082542
84.103112253998972	78.320000000000007	847.51617188636919
84.202750745663863	78.439999999999998	847.22214658272514
84.302285481866861	78.560000000000002	846.92797716252153
84.401716241489098	78.680000000000007	846.63366206711999
84.501042799332112	78.799999999999997	846.3391997065155
84.600264926091427	78.920000000000002	846.04458845931185
84.69938238833025	79.039999999999992	845.74982667269705
84.798394948432971	79.159999999999997	845.45491266221734
84.897302364595518	79.280000000000001	845.15984471192132
84.996104390785447	79.400000000000006	844.86462107420039
85.103020699111696	79.530000000000001	844.54461771333308
85.201602354028964	79.650000000000006	844.24906397541417
85.300077833494157	79.769999999999996	843.95334896228405
85.398446873952039	79.890000000000001	843.6574707969985
85.496709207495087	80.010000000000005	843.36142757094285
85.603039337136693	80.140000000000001	843.04052555839598
85.701078484997552	80.259999999999991	842.7441321873489
85.799010072262959	80.379999999999995	842.44756767147737
85.896833813042036	80.5	842.15082997321406
86.002687493589704	80.629999999999995	841.82916630134241
86.100285616443927	80.75	841.5320611243892
86.197774983177283	80.870000000000005	841.2347762844829
86.303265382617198	81	840.91251245057583
86.400527191846038	81.120000000000005	840.614846320796
86.497679292502369	81.239999999999995	840.31699375051357
86.602803229358756	81.370000000000005	839.99410711630935
86.699725743336941	81.489999999999995	839.69585882947922
86.79653755309694	81.609999999999999	839.39741703068648
86.901291701600741	81.739999999999995	839.07388397603972
86.997871805190599	81.859999999999999	838.77503142544538
87.102374140671259	81.989999999999995	838.45104773904768
87.198721054602004	82.109999999999999	838.15177393749673
87.302969947432956	82.240000000000009	837.8273280981366
87.399082146640424	82.359999999999999	837.52762227576113
87.503075922103974	82.489999999999995	837.20270247068947
87.598951839853811	82.609999999999999	836.9025535900937
87.702688778082802	82.740000000000009	836.57714771887004
87.798326805933542	82.859999999999999	836.27654447881196
87.901805141839802	82.989999999999995	835.95064015695334
87.997203629628345	83.109999999999999	835.64957099617277
88.100421552940631	83.240000000000009	835.32315555977584
88.203503331290051	83.370000000000005	834.99646924755234
88.298534464081484	83.489999999999995	834.69466917114551
88.401352991742201	83.620000000000005	834.36745196996981
88.496140241165861	83.740000000000009	834.06515571249111
88.598693594167898	83.870000000000005	833.7373942742197
88.701108281054985	84	833.40934446988831
88.80338376311056	84.13000000000001	833.08100258247032
88.897667874568327	84.25	832.77765527277461
88.999674117722677	84.379999999999995	832.44874110748424
89.101539545214578	84.509999999999991	832.11952378816477
89.203263593662157	84.640000000000001	831.78999945833039
89.297036738378154	84.760000000000005	831.48554729445277
89.398487297481793	84.890000000000001	831.15542159268534
89.499794794778026	85.019999999999996	830.82497740946656
89.600958642332373	85.150000000000006	830.49421075403734
89.701978245974786	85.280000000000001	830.16311760226472
89.802853005326227	85.409999999999997	829.83169389714021
89.903582313770912	85.540000000000006	829.49993554877528
89.996433585575843	85.659999999999997	829.19339648842924
90.096881452981194	85.790000000000006	828.86098298178331
90.197182060737674	85.920000000000002	828.52822269249737
90.297334777926253	86.050000000000011	828.19511140557097
90.397338967385437	86.180000000000007	827.86164487426868
90.497193985794027	86.310000000000002	827.52781882111412
90.596899183621233	86.439999999999998	827.1936289376672
90.696453905134433	86.570000000000007	826.859070884826
90.803497638569723	86.709999999999994	826.49836084454637
90.902737710114479	86.839999999999989	826.16302413510857
91.001825248693351	86.969999999999999	825.82730571427783
91.100759573187233	87.099999999999994	825.49120111938646
91.199539996197586	87.22999999999999	825.15470585755429
91.29816582404662	87.359999999999999	824.8178154059151
91.396636356719725	87.489999999999995	824.48052521132195
91.502507062132494	87.629999999999995	824.11683730984441
91.600652794405022	87.760000000000005	823.77870220095792
91.698641037694173	87.890000000000001	823.44015315033903
91.7964710658852	88.019999999999996	823.10118548131322
91.901648701572483	88.160000000000011	822.73566981676231
91.99914778063966	88.290000000000006	822.39581763202295
92.096486369220131	88.420000000000002	822.05553224435425
92.201132194175671	88.560000000000002	821.68858107713095
92.298135042299677	88.689999999999998	821.34738057280083
92.402417526607479	88.829999999999998	820.97943261839828
92.499081324393487	88.959999999999994	820.63729598147256
92.602996869924851	89.099999999999994	820.26832844628734
92.699318244525088	89.230000000000004	819.92523435849762
92.802863184295035	89.370000000000005	819.55522411653692
92.898838697916347	89.5	819.21115094439847
93.00200929372032	89.640000000000001	818.84007452148944
93.097635441163433	89.77000000000001	818.49500029941919
93.200427880859138	89.909999999999997	818.12283385458977
93.303022713409845	90.049999999999997	817.75009269920702
93.398111481106071	90.180000000000007	817.40345556903776
93.500322219979466	90.319999999999993	817.0295874352978
93.60233222443749	90.459999999999994	816.65512517844763
93.696875107276057	90.590000000000003	816.3068723436154
93.798494889136478	90.730000000000004	815.93124515764976
93.899910706078288	90.86999999999999	815.5550038913334
94.001121429776134	91.010000000000005	815.17814159372938
94.10212591838598	91.149999999999991	814.80065123955137
94.202923016104251	91.290000000000006	814.42252572592224
94.303511552745363	91.430000000000007	814.04375786932178
94.396727410964033	91.560000000000002	813.69146334873585
94.496910362432899	91.700000000000003	813.31143608502862
94.596881238072569	91.840000000000003	812.93074493948734
94.696638805967353	91.97999999999999	812.5493823730194
94.803283788736962	92.129999999999995	812.14002586970309
94.902595511333899	92.269999999999996	811.75724807902407
95.001690032484973	92.409999999999997	811.3737750595028
95.100566046316786	92.549999999999997	810.989598830045
95.1992222269091	92.689999999999998	810.60471128708014
95.297657227571989	92.829999999999998	810.2191041993392
95.402876302626964	92.97999999999999	809.80514576656788
95.500848766377189	93.120000000000005	809.41802142153392
95.598595774717268	93.260000000000005	809.03015138259434
95.703072888646375	93.410000000000011	808.61373882606858
95.800348270769362	93.549999999999997	808.22429589576132
95.897393690709265	93.689999999999998	807.83407965847073
96.00111400860321	93.840000000000003	807.41512207976484
96.097678202751567	93.97999999999999	807.02327405721371
96.20087931695231	94.129999999999995	806.60254597675885
96.296955488775026	94.269999999999996	806.2090243599414
96.399629966884774	94.420000000000002	805.78647999894383
96.502029026103344	94.569999999999993	805.3629775322479
96.59735112173162	94.710000000000008	804.96683256688266
96.699211645859378	94.859999999999999	804.54144026113136
96.800790386356098	95.009999999999991	804.11505040802513
96.902085070149326	95.159999999999997	803.68764887240832
97.003093367705389	95.309999999999988	803.25922114056812
97.09710728847314	95.450000000000003	802.85841625261673
97.197555078584273	95.599999999999994	802.42796189452929
97.297709298431812	95.75	801.99643640505747
97.397567370351041	95.899999999999991	801.56382359666532
97.49712664636418	96.049999999999997	801.13010680517618
97.602990800311971	96.209999999999994	800.66623937935583
97.701923854558331	96.359999999999999	800.23018604905155
97.800549520437826	96.509999999999991	799.79297442503594
97.898864830333196	96.659999999999997	799.3545856688288
97.996866729006143	96.810000000000002	798.91500034437922
98.10105309158547	96.969999999999999	798.44476783336358
98.198397194526109	97.11999999999999	798.00264529720516
98.301874396573055	97.280000000000001	797.52965838291129
98.39854639639421	97.430000000000007	797.08490702941708
98.501298685194556	97.590000000000003	796.60906463988067
98.597283332618275	97.740000000000009	796.16158642509617
98.699293906154111	97.899999999999991	795.6827803147462
98.800914713583325	98.060000000000002	795.20239965101064
98.902140808283505	98.219999999999999	794.72041238051679
99.002967068504873	98.379999999999995	794.23678525347714
99.097123841683285	98.530000000000001	793.78186483663012
99.19716015689562	98.689999999999998	793.29496115178335
99.302992830467943	98.859999999999999	792.77571315573732
99.402164751705158	99.019999999999996	792.28516827660496
99.500908318177878	99.180000000000007	791.79279742472136
99.599217182565937	99.339999999999989	791.29855899462564
99.697084761167915	99.5	790.80240977348149
99.800577901246385	99.670000000000002	790.27310733023478
99.89751347002597	99.829999999999998	789.77287339401664
100	100	789.23912329991435
