 VolC   max: 0.011657
MassF   max: 0.011522
 VolC r max: 0.000000
MassF r max: 0.000964
 VolC   max: 0.000044
MassF   max: 0.000044
null device 
          1 
null device 
          1 
Comp MassF abs max: 0.000050
Comp MassF rel max: 0.011659
Comp MassF rnd max: 0.000000
Comp Dens  abs max: 0.000000
null device 
          1 
Comp MassF abs max: 0.000050
Comp MassF rel max: 0.011659
Comp MassF rnd max: 0.000000
Comp Dens  abs max: 0.000000
null device 
          1 
